Division,WeightClassKg,Sex,Name,BodyweightKg,Country,Best3SquatKg,Best3BenchKg,Bench4Kg,Best3DeadliftKg,TotalKg,Event,Equipment,Place
Open,44,F,Jucileide Lopes,43.8,Brasil,85,45,,105,235,SBD,Single-ply,1
Sub-Juniors,44,F,Maria Santos Cruz,44,Brasil,92.5,35,,110,237.5,SBD,Single-ply,1
Juniors,44,F,Maria V.Santos Cruz,39.2,Brasil,55,32.5,,,,SBD,Single-ply,DQ
Juniors,48,F,Patrícia Rodrigues,47.8,Brasil,75,35,,100,210,SBD,Single-ply,1
Juniors,52,F,Bárbara Lelo Leme,51.2,Brasil,80,40,,95,215,SBD,Single-ply,1
Sub-Juniors,52,F,Franciane Weiss,51.7,Brasil,90,40,,110,240,SBD,Single-ply,1
Open,52,F,Rosa Castro,51.5,Ecuador,150,70,,155,375,SBD,Single-ply,1
Open,52,F,Fernanda Pereira Costa,49.7,Brasil,110,60,,120,290,SBD,Single-ply,2
Open,52,F,Ester Mine Niiuchi,50.9,Brasil,125,45,,115,285,SBD,Single-ply,3
Juniors,52,F,Thaís Regina da Silva,51.9,Brasil,,,,,,SBD,Single-ply,DQ
Masters 1,56,F,Christine Suzan Wender,55.8,Brasil,127.5,70,,135,332.5,SBD,Single-ply,1
Sub-Juniors,56,F,Liliane C.Carneiro,52.7,Brasil,100,40,,100,240,SBD,Single-ply,1
Juniors,56,F,Denisse Molina,55.8,Ecuador,150,70,,130,350,SBD,Single-ply,1
Juniors,56,F,Cláudia dos Santos B.,54.7,Brasil,90,42.5,,115,247.5,SBD,Single-ply,1
Sub-Juniors,60,F,Istela Silva Lima,59.2,Brasil,87.5,42.5,,95,225,SBD,Single-ply,1
Juniors,60,F,Maria Cláudia Pavin,57.5,Brasil,115,57.5,,100,272.5,SBD,Single-ply,1
Juniors,60,F,Lurdes R. Barbosa,58.6,Brasil,80,42.5,,115,237.5,SBD,Single-ply,2
Open,60,F,Judimeire A. de Lago,58.5,Brasil,110,62.5,,135,307.5,SBD,Single-ply,1
Open,67.5,F,Azelita G.dos Santos,67.4,Brasil,150,92.5,,155,397.5,SBD,Single-ply,2
Sub-Juniors,67.5,F,Diana Milani,66.4,Brasil,72.5,45,,125,242.5,SBD,Single-ply,1
Juniors,67.5,F,Luciana C. de Carvalho,66.7,Brasil,142.5,47.5,,142.5,332.5,SBD,Single-ply,1
Open,67.5,F,Hilda Duran,67.5,Venezuela,170,100,,185,455,SBD,Single-ply,1
Juniors,75,F,Aura Raquel Pérez,72.6,Venezuela,167.5,90,,175,432.5,SBD,Single-ply,1
Open,75,F,Irene Frangi,72.1,Argentina,207.5,120,,190,517.5,SBD,Single-ply,1
Open,75,F,Ana Paula de Souza,69.5,Brasil,145,67.5,,157.5,370,SBD,Single-ply,2
Masters 2,75,F,Nilce Casagrande,70.1,Brasil,70,45,,110,225,SBD,Single-ply,1
Masters 1,75,F,Terezinha Rosa da Silva,68.9,Brasil,85,50,,110,245,SBD,Single-ply,1
Open,82.5,F,Andrea Attis,76.1,Brasil,140,40,,100,280,SBD,Single-ply,1
Open,90,F,Lucilene Lopes,82.7,Brasil,190,130,,190,510,SBD,Single-ply,1
Sub-Juniors,90+,F,Talita Miriam Felipe,119.6,Brasil,100,65,,135,300,SBD,Single-ply,1
Open,90+,F,Maria Necci A. Souza,100.4,Brasil,190,112.5,,160,462.5,SBD,Single-ply,1
Juniors,52,M,Itamar da Silva,52,Brasil,95,55,,160,310,SBD,Single-ply,1
Masters 1,52,M,Jair Felipe Quirino,51.5,Brasil,175,90,,180,445,SBD,Single-ply,1
Juniors,52,M,Marvin Merizalde,51.7,Ecuador,180,107.5,,200,487.5,SBD,Single-ply,1
Sub-Juniors,52,M,Medson Magno Conceição,51.8,Brasil,120,55,,130,305,SBD,Single-ply,1
Masters 2,56,M,Paye P. Alberto,55.7,Ecuador,,75,,,,SBD,Single-ply,DQ
Juniors,56,M,Alexis Martinez,55.8,Argentina,165,95,,160,420,SBD,Single-ply,1
Masters 1,56,M,Alfredo Anzules,53.9,Ecuador,167.5,102.5,,175,445,SBD,Single-ply,1
Juniors,56,M,Herbert Roberto,55.1,Brasil,150,90,,190,430,SBD,Single-ply,1
Open,60,M,Alex Sandro,59.2,Brasil,160,105,,205,470,SBD,Single-ply,2
Open,60,M,Ernesto Constante,59.2,Ecuador,210,130,,202.5,542.5,SBD,Single-ply,1
Sub-Juniors,60,M,José Alves,58.8,Brasil,125,75,,170,370,SBD,Single-ply,1
Juniors,60,M,Marcelo Delgado,59.9,Ecuador,200,130,,200,530,SBD,Single-ply,1
Juniors,60,M,Rafael Herculano,60,Brasil,192.5,102.5,,170,465,SBD,Single-ply,1
Masters 1,67.5,M,Carlos Palomo,66.2,Uruguay,175,90,,195,460,SBD,Single-ply,1
Open,67.5,M,Eric Oishi,66.4,Brasil,200,155,,205,560,SBD,Single-ply,1
Sub-Juniors,67.5,M,Gabriel Oliveira,64.7,Brasil,160,85,,180,425,SBD,Single-ply,1
Masters 1,67.5,M,José Inguanti,66.8,Argentina,213,175,,200,588,SBD,Single-ply,1
Juniors,67.5,M,Sílvio Alves,65.1,Brasil,185,95,,172.5,452.5,SBD,Single-ply,1
Masters 3,75,M,Arlindo da Silva,74.9,Brasil,170,87.5,,170,427.5,SBD,Single-ply,1
Masters 3,75,M,César Berrocal C.,69,Peru,90,80,,95,265,SBD,Single-ply,2
Masters 1,75,M,Darci Polastri,74.5,Brasil,160,95,,230,485,SBD,Single-ply,2
Open,75,M,José Evandro da Rocha,74.7,Brasil,285,152.5,,265,702.5,SBD,Single-ply,1
Masters 1,75,M,Luis Botto,73.5,Brasil,180,117.5,,197.5,495,SBD,Single-ply,1
Sub-Juniors,75,M,Ricardo Dória,69,Brasil,150,110,,150,410,SBD,Single-ply,1
Juniors,75,M,Washington Prado,74.5,Brasil,220,140,,210,570,SBD,Single-ply,1
Masters 1,82.5,M,Aparecido da Silva,81.3,Brasil,190,140,,220,550,SBD,Single-ply,1
Juniors,82.5,M,Geovani Heredia,82.3,Ecuador,260,185,,225,670,SBD,Single-ply,1
Juniors,82.5,M,Gilson José Dutra,80,Brasil,150,100,,225,475,SBD,Single-ply,1
Open,82.5,M,Espino Moran,82.5,Peru,,,,,,SBD,Single-ply,DQ
Open,82.5,M,Marcelo Noguti,81.3,Brasil,250,190,,245,685,SBD,Single-ply,1
Open,82.5,M,Marcos Sanchéz,81,Ecuador,,,,,,SBD,Single-ply,DQ
Open,90,M,Carlos Prieto,89.2,Ecuador,,135,,,,SBD,Single-ply,DQ
Juniors,90,M,Davi Horna,83.6,Peru,200,132.5,,190,522.5,SBD,Single-ply,1
Masters 1,90,M,Edgar Cardoso,86.3,Brasil,182.5,132.5,,165,480,SBD,Single-ply,2
Masters 3,90,M,Luis Comelli,88.6,Argentina,190,120,,195,505,SBD,Single-ply,1
Juniors,90,M,Maycon Niedhardt,85,Brasil,210,137.5,,215,562.5,SBD,Single-ply,1
Masters 2,90,M,Júlio Chavez,89.2,Argentina,200,100,,240,540,SBD,Single-ply,1
Sub-Juniors,90,M,José Wilter S. Frazão,86.1,Brasil,160,80,,175,415,SBD,Single-ply,1
Masters 1,90,M,Marcos Barbosa,86,Brasil,150,127.5,,202.5,480,SBD,Single-ply,1
Masters 1,100,M,Antonio Carlos Canova,99.2,Brasil,185,145,,240,570,SBD,Single-ply,2
Masters 3,100,M,Aparecido de Souza,95.4,Brasil,170,90,,235,495,SBD,Single-ply,1
Juniors,100,M,Cristóbal Aguilar,98.4,Ecuador,292.5,170,,295,757.5,SBD,Single-ply,1
Juniors,100,M,Gustavo Alegretti,97,Brasil,220,157.5,,230,607.5,SBD,Single-ply,2
Masters 1,100,M,Jacinto Pacheco,98.7,Ecuador,325,215,,270,810,SBD,Single-ply,1
Sub-Juniors,100,M,Luis Vilas Morais Vieira,95,Brasil,125,80,,170,375,SBD,Single-ply,1
Masters 2,100,M,Olício dos Santos Filho,90.4,Brasil,235,147.5,,295,677.5,SBD,Single-ply,1
Open,100,M,Nelson Valencio,94.8,Ecuador,225,125,,280,630,SBD,Single-ply,2
Open,100,M,Valdecir Lopes,95.9,Brasil,300,240,252.5,305,845,SBD,Single-ply,1
Masters 1,100,M,José Perueira,100,Brasil,250,175,,220,645,SBD,Single-ply,1
Masters 2,110,M,Carlos Bolaños,105.4,Venezuela,220,120,,240,580,SBD,Single-ply,1
Masters 3,110,M,Claudir Soares Lopes,105,Brasil,200,152.5,,200,552.5,SBD,Single-ply,1
Open,110,M,Francisco Teles,104.1,Brasil,270,185,,270,725,SBD,Single-ply,3
Open,110,M,Giampaolo Valério,104.3,Brasil,,,,,,SBD,Single-ply,DQ
Juniors,110,M,Joe Ube,108.1,Ecuador,300,150,,230,680,SBD,Single-ply,1
Open,110,M,Leonardo Cavaglia,109.1,Argentina,290,185,,280,755,SBD,Single-ply,2
Open,110,M,Pablo Morales,108,Uruguay,315,160,,300,775,SBD,Single-ply,1
Juniors,110,M,Raphael Barbosa,108,Brasil,210,155,,215,580,SBD,Single-ply,1
Sub-Juniors,110,M,Tiago Floriani,101,Brasil,210,165,,180,555,SBD,Single-ply,1
Masters 1,125,M,Antonio Mendes,121.6,Brasil,330,200,,300,830,SBD,Single-ply,1
Open,125,M,Júlio César Conrado,122.9,Brasil,340,185,,270,795,SBD,Single-ply,1
Juniors,125,M,Rodrigo Gonçalves,124.9,Brasil,300,200,,285,785,SBD,Single-ply,1
Masters 2,125,M,Serafim Rocha,112.2,Brasil,230,150,,240,620,SBD,Single-ply,1
Sub-Juniors,125,M,Tiago Beumer,120.3,Brasil,235,130,,230,595,SBD,Single-ply,1
Masters 1,125+,M,Alberto Alexandre Teixeira,153,Brasil,310,170,,260,740,SBD,Single-ply,1
Juniors,125+,M,André Luiz de Carneiro,153,Brasil,240,175,,260,675,SBD,Single-ply,1
Open,125+,M,Jaime Barrezueta,129.6,Ecuador,320,232.5,240,300,852.5,SBD,Single-ply,1
Masters 2,125+,M,Oscar Soria,156,Argentina,310,170,,280,760,SBD,Single-ply,1
Open,125+,M,Roberto Heberle da Silveir,153,Brasil,300,160,,300,760,SBD,Single-ply,2
