Division,WeightClassKg,Place,Name,Team,BodyweightKg,Best3SquatKg,Best3BenchKg,Best3DeadliftKg,TotalKg,Equipment,Event,Sex
Boys,52,1,Angel Garcia,Edinburg Idea College Prep,50.98,181.44,102.06,174.63,458.13,Single-ply,SBD,M
Boys,52,2,Arnold Pena,Benavides,50.98,147.42,86.18,165.56,399.16,Single-ply,SBD,M
Boys,52,3,Austin Mullenix,Sadler S & S Cons,50.71,161.03,83.91,149.69,394.63,Single-ply,SBD,M
Boys,52,4,David Carrasco,Big Lake Reagan County,49.44,142.88,81.65,167.83,392.36,Single-ply,SBD,M
Boys,52,5,Cole Terry,Skidmore-Tynan,50.71,145.15,83.91,158.76,387.82,Single-ply,SBD,M
Boys,52,6,Noah Vasquez,Palmer,50.98,147.42,92.99,147.42,387.82,Single-ply,SBD,M
Boys,52,7,Braden Fears,White Oak,51.62,142.88,86.18,158.76,387.82,Single-ply,SBD,M
Boys,52,8,Mason Williams,Yorktown,51.26,154.22,81.65,149.69,385.55,Single-ply,SBD,M
Boys,52,9,Josh Paige,Hitchcock,50.8,147.42,83.91,145.15,376.48,Single-ply,SBD,M
Boys,52,10,Joel Santillan,Clifton,49.9,136.08,83.91,154.22,374.21,Single-ply,SBD,M
Boys,52,11,Johnny Gomez,Rocksprings,51.17,129.27,90.72,147.42,367.41,Single-ply,SBD,M
Boys,52,12,Cody Henson,Abernathy,49.44,136.08,68.04,147.42,351.53,Single-ply,SBD,M
Boys,52,13,Benjamin Galindo,Brady,50.17,113.4,61.23,129.27,303.91,Single-ply,SBD,M
Boys,52,14,Hadley Workman,Leonard,51.53,104.33,70.31,113.4,288.03,Single-ply,SBD,M
Boys,52,DQ,Natanael Salinas,Bloomington,51.71,,,,,Single-ply,SBD,M
Boys,52,DQ,Kevin Manning,Boling,48.63,,,,,Single-ply,SBD,M
Boys,56,1,Manuel Padilla,Natalia,55.07,192.78,83.91,183.7,460.4,Single-ply,SBD,M
Boys,56,2,Richard Lowrie,Kemp,55.79,185.97,99.79,172.37,458.13,Single-ply,SBD,M
Boys,56,3,Mario Giron,Pilot Point,53.89,181.44,102.06,172.37,455.86,Single-ply,SBD,M
Boys,56,4,Kyle Bailey,Karnes City,55.43,181.44,102.06,165.56,449.06,Single-ply,SBD,M
Boys,56,5,Justin Wilson #3,Bowie,53.61,181.44,79.38,174.63,435.45,Single-ply,SBD,M
Boys,56,6,Kevin Nguyen,Amarillo Highland Park,55.34,158.76,86.18,174.63,419.57,Single-ply,SBD,M
Boys,56,7,Mario Hernandez,Friona,55.79,154.22,90.72,167.83,412.77,Single-ply,SBD,M
Boys,56,8,Nate Mendoza,Kemp,55.61,158.76,77.11,174.63,410.5,Single-ply,SBD,M
Boys,56,9,Joe-Angel Carpenter,Troy,54.43,149.69,79.38,165.56,394.63,Single-ply,SBD,M
Boys,56,10,Russell Morrison,El Maton Tidehaven,55.52,147.42,83.91,151.95,383.29,Single-ply,SBD,M
Boys,56,11,Michael Oster,Troy,54.79,151.95,77.11,131.54,360.61,Single-ply,SBD,M
Boys,56,DQ,Tyler Le,Palacios,55.79,149.69,92.99,,,Single-ply,SBD,M
Boys,60,1,Anthony Perez,San Diego,59.69,226.8,120.2,217.72,564.72,Single-ply,SBD,M
Boys,60,2,Richard Saenz,Hebbronville,59.69,231.33,127.01,199.58,557.92,Single-ply,SBD,M
Boys,60,3,Luis Trejo,Friona,59.6,208.65,117.93,192.78,519.36,Single-ply,SBD,M
Boys,60,4,JD Rojas,Lubbock Roosevelt,59.6,179.17,117.93,197.31,494.42,Single-ply,SBD,M
Boys,60,5,Hunter Mullins,Jarrell,57.61,188.24,102.06,192.78,483.08,Single-ply,SBD,M
Boys,60,6,Luis Gonzalez,Wichita Falls City View,58.97,185.97,97.52,181.44,464.93,Single-ply,SBD,M
Boys,60,7,Bryan McNeill,Rogers,59.6,185.97,92.99,185.97,464.93,Single-ply,SBD,M
Boys,60,8,Sean Busby,Teague,59.42,176.9,97.52,181.44,455.86,Single-ply,SBD,M
Boys,60,9,Derek Clark,Buna,58.69,174.63,97.52,181.44,453.59,Single-ply,SBD,M
Boys,60,10,Caleb McWhorter,Wichita Falls City View,59.06,170.1,79.38,181.44,430.91,Single-ply,SBD,M
Boys,60,11,Isaac Garza,Ganado,59.87,145.15,95.25,145.15,385.55,Single-ply,SBD,M
Boys,60,DQ,Juan Hernandez,Palmer,58.42,,,,,Single-ply,SBD,M
Boys,67.5,1,Raymon Aranda,Seagraves,65.14,226.8,140.61,229.06,596.47,Single-ply,SBD,M
Boys,67.5,2,Jacob Fanno,Jourdanton,67.13,226.8,127.01,226.8,580.6,Single-ply,SBD,M
Boys,67.5,3,Diego Perez,Rocksprings,66.86,224.53,133.81,190.51,548.85,Single-ply,SBD,M
Boys,67.5,4,Ramiro Gonzalez,Falfurrias,66.13,210.92,122.47,213.19,546.58,Single-ply,SBD,M
Boys,67.5,5,Arturo Reyna,Bishop,65.86,222.26,124.74,197.31,544.31,Single-ply,SBD,M
Boys,67.5,6,Oscar Narvaez,Mertzon Irion County,65.86,215.46,120.2,201.85,537.51,Single-ply,SBD,M
Boys,67.5,7,Dillon Daniel,Crawford,66.95,215.46,113.4,208.65,537.51,Single-ply,SBD,M
Boys,67.5,8,Wyat Burrows,Olney,65.95,213.19,95.25,219.99,528.44,Single-ply,SBD,M
Boys,67.5,9,Jeremiah Brian,Leonard,66.41,204.12,117.93,201.85,523.9,Single-ply,SBD,M
Boys,67.5,10,Steven Flores,Blanco,65.86,204.12,117.93,199.58,521.63,Single-ply,SBD,M
Boys,67.5,11,Brayden Lopez,Commerce,64.95,213.19,115.67,188.24,517.1,Single-ply,SBD,M
Boys,67.5,12,Brandon Robles,Van Vleck,64.5,210.92,92.99,183.7,487.61,Single-ply,SBD,M
Boys,67.5,DQ,Emmanuel Walker,Corrigan-Camden,64.68,204.12,104.33,,,Single-ply,SBD,M
Boys,67.5,DQ,Quinn Johnson,Winona,66.95,,,,,Single-ply,SBD,M
Boys,75,1,Javier Rodriguez,San Diego,74.3,256.28,163.29,219.99,639.57,Single-ply,SBD,M
Boys,75,2,Danny Ho,Wichita Falls City View,73.84,240.4,154.22,226.8,621.42,Single-ply,SBD,M
Boys,75,3,Spencer Wright,Leonard,73.21,240.4,151.95,219.99,612.35,Single-ply,SBD,M
Boys,75,4,Gilibaldo Garcia,San Antonio Brooks Academy,73.12,226.8,131.54,242.67,601.01,Single-ply,SBD,M
Boys,75,5,Ramiro Martinez,Troup,74.66,219.99,138.35,238.14,596.47,Single-ply,SBD,M
Boys,75,6,Parker Hay,Trinity,72.85,224.53,140.61,204.12,569.26,Single-ply,SBD,M
Boys,75,7,Jacob Galvez,El Maton Tidehaven,74.21,222.26,138.35,197.31,557.92,Single-ply,SBD,M
Boys,75,8,Kolby Pederson,Hubbard,73.57,224.53,127.01,201.85,553.38,Single-ply,SBD,M
Boys,75,9,Nathan Gerik,West,73.57,204.12,129.27,201.85,535.24,Single-ply,SBD,M
Boys,75,10,Eddie Cross,Coldspring-Oakhurst,73.94,197.31,129.27,204.12,530.7,Single-ply,SBD,M
Boys,75,11,Tristan Wegener,Hawley,72.76,222.26,136.08,170.1,528.44,Single-ply,SBD,M
Boys,75,12,Anthony Perez,Ozona,72.3,179.17,131.54,190.51,501.22,Single-ply,SBD,M
Boys,75,DQ,Mike Adameit,Lyford,73.21,,,,,Single-ply,SBD,M
Boys,82.5,1,Michael Rodriguez,Axtell,79.92,274.42,131.54,283.5,689.46,Single-ply,SBD,M
Boys,82.5,2,Cameron Riess,Grapeland,80.92,272.16,183.7,226.8,682.66,Single-ply,SBD,M
Boys,82.5,3,Hunter Douzat,Little River Academy,81.1,263.08,176.9,226.8,666.78,Single-ply,SBD,M
Boys,82.5,4,Caleb Wilson,Mertzon Irion County,81.01,260.82,136.08,235.87,632.76,Single-ply,SBD,M
Boys,82.5,5,Isaiah Herring,Hallettsville,78.83,244.94,145.15,235.87,625.96,Single-ply,SBD,M
Boys,82.5,6,Aron Jahr,Diana New Diana,81.92,233.6,140.61,235.87,610.08,Single-ply,SBD,M
Boys,82.5,7,Raziel Galindo,Rocksprings,79.2,240.4,136.08,229.06,605.55,Single-ply,SBD,M
Boys,82.5,8,Link Wilkes,Sundown,81.37,231.33,136.08,226.8,594.21,Single-ply,SBD,M
Boys,82.5,9,Michael Hymel,Howe,79.65,229.06,140.61,219.99,589.67,Single-ply,SBD,M
Boys,82.5,10,Dominic Garcia,Palacios,82.1,226.8,136.08,226.8,589.67,Single-ply,SBD,M
Boys,82.5,11,Elijah Holifield,Skidmore-Tynan,81.83,215.46,131.54,240.4,587.4,Single-ply,SBD,M
Boys,82.5,12,Tanner Hartsfield,Howe,81.65,226.8,136.08,222.26,585.13,Single-ply,SBD,M
Boys,82.5,13,Kobe Blackmon,Van Vleck,78.74,204.12,147.42,226.8,578.33,Single-ply,SBD,M
Boys,82.5,DQ,Alan Medrano,Bishop,79.02,,,,,Single-ply,SBD,M
Boys,90,1,Mitchell Rees,Karnes City,86.36,310.71,140.61,249.48,700.8,Single-ply,SBD,M
Boys,90,2,Jeff Williams,El Maton Tidehaven,89.18,242.67,183.7,251.74,678.12,Single-ply,SBD,M
Boys,90,3,Danny Rodriguez,Palacios,86.55,283.5,133.81,235.87,653.17,Single-ply,SBD,M
Boys,90,4,Matt Holmes,Merkel,87.72,254.01,158.76,240.4,653.17,Single-ply,SBD,M
Boys,90,5,Drew Roberts,Bosqueville,88.18,249.48,174.63,229.06,653.17,Single-ply,SBD,M
Boys,90,6,Vincent Wilson,Rogers,88.27,240.4,163.29,244.94,648.64,Single-ply,SBD,M
Boys,90,7,Treyvaun Crawford,Trinity,84.37,240.4,138.35,238.14,616.89,Single-ply,SBD,M
Boys,90,8,Blaine McGregor,Amarillo Highland Park,85.64,233.6,147.42,233.6,614.62,Single-ply,SBD,M
Boys,90,9,Ronnie Hart,Leonard,86.73,213.19,145.15,222.26,580.6,Single-ply,SBD,M
Boys,90,DQ,Ray Saenz,Bishop,87.54,263.08,142.88,,,Single-ply,SBD,M
Boys,90,DQ,Alan Quezada,Kemp,88.45,,,,,Single-ply,SBD,M
Boys,90,DQ,Destin Montelongo,Santo,,,,,,Single-ply,SBD,M
Boys,100,1,Elijah Gooden,Boling,96.34,317.51,185.97,278.96,782.45,Single-ply,SBD,M
Boys,100,2,Karl Gibson II,Mathis,96.62,283.5,170.1,272.16,725.75,Single-ply,SBD,M
Boys,100,3,Mike Castillo,McGregor,96.52,272.16,165.56,263.08,700.8,Single-ply,SBD,M
Boys,100,4,Julian Martinez,Natalia,98.61,249.48,158.76,272.16,680.39,Single-ply,SBD,M
Boys,100,5,Que'Sean Gildon,Lago Vista,99.43,306.17,124.74,249.48,680.39,Single-ply,SBD,M
Boys,100,6,Reece Clark,Troup,96.52,285.76,149.69,240.4,675.85,Single-ply,SBD,M
Boys,100,7,John Cordova,Rocksprings,92.08,267.62,167.83,226.8,662.24,Single-ply,SBD,M
Boys,100,8,Trent Allen,Troup,94.26,285.76,154.22,217.72,657.71,Single-ply,SBD,M
Boys,100,9,Bailey Trevino,George West,94.35,272.16,149.69,235.87,657.71,Single-ply,SBD,M
Boys,100,10,Hunter Harrison,Redwater,97.25,272.16,158.76,226.8,657.71,Single-ply,SBD,M
Boys,100,11,Tristan Dennison,Bowie,96.52,263.08,147.42,240.4,650.91,Single-ply,SBD,M
Boys,100,12,Alex Falcon,Troy,97.25,233.6,156.49,247.21,637.3,Single-ply,SBD,M
Boys,100,13,Valente Perez,Post,99.7,247.21,131.54,226.8,605.55,Single-ply,SBD,M
Boys,100,14,Tristan Barbare,Perrin-Whitt,98.16,240.4,136.08,222.26,598.74,Single-ply,SBD,M
Boys,100,DQ,Cesar Jimenez,Palacios,98.79,215.46,,,,Single-ply,SBD,M
Boys,100,DQ,Damian Hines,Jefferson,97.7,,,,,Single-ply,SBD,M
Boys,110,1,Xavian Hampton,Hitchcock,108.68,324.32,163.29,276.69,764.3,Single-ply,SBD,M
Boys,110,2,Angel De Luna,Big Lake Reagan County,109.68,328.85,183.7,242.67,755.23,Single-ply,SBD,M
Boys,110,3,Erick Marton,Axtell,106.23,299.37,163.29,276.69,739.36,Single-ply,SBD,M
Boys,110,4,Chandler Strmiska,Little River Academy,105.96,274.42,192.78,267.62,734.82,Single-ply,SBD,M
Boys,110,5,Michael Salaiz,San Diego,107.05,294.84,167.83,244.94,707.6,Single-ply,SBD,M
Boys,110,6,Jose Marquez,Hebbronville,107.95,267.62,154.22,256.28,678.12,Single-ply,SBD,M
Boys,110,7,Tristan Ortiz,Big Lake Reagan County,108.68,308.44,138.35,231.33,678.12,Single-ply,SBD,M
Boys,110,8,Austin Coker,Santo,107.59,285.76,145.15,238.14,669.05,Single-ply,SBD,M
Boys,110,9,Evander Williams,Newton,108.86,276.69,131.54,251.74,659.98,Single-ply,SBD,M
Boys,110,10,TJ Jones,Elkhart,104.87,267.62,154.22,233.6,655.44,Single-ply,SBD,M
Boys,110,11,Jacob Taylor,Bells,108.5,244.94,156.49,233.6,635.03,Single-ply,SBD,M
Boys,110,DQ,DeSavion Crane,San Augustine,108.95,256.28,145.15,,,Single-ply,SBD,M
Boys,110,DQ,Marcus Williams,Teague,108.14,,,,,Single-ply,SBD,M
Boys,125,1,Blake Johnson,Franklin,123.65,337.93,188.24,297.1,823.27,Single-ply,SBD,M
Boys,125,2,Kawon McCowin,Shelbyville,116.94,294.84,174.63,260.82,730.28,Single-ply,SBD,M
Boys,125,3,Ethan Price,Dublin,114.94,272.16,204.12,244.94,721.21,Single-ply,SBD,M
Boys,125,4,Trace Mascorro,Refugio,118.66,274.42,181.44,256.28,712.14,Single-ply,SBD,M
Boys,125,5,Pedro Bernal,Comanche,112.94,283.5,163.29,260.82,707.6,Single-ply,SBD,M
Boys,125,6,Jaime Rosas,Falfurrias,117.66,297.1,165.56,238.14,700.8,Single-ply,SBD,M
Boys,125,7,Austin McCarty,Childress,120.56,283.5,183.7,229.06,696.26,Single-ply,SBD,M
Boys,125,8,Seth Greer,Clarendon,121.11,240.4,192.78,249.48,682.66,Single-ply,SBD,M
Boys,125,9,Blake Martin,Alvord,114.85,294.84,167.83,213.19,675.85,Single-ply,SBD,M
Boys,125,10,Robert Martinez,Louise,123.1,283.5,142.88,238.14,664.51,Single-ply,SBD,M
Boys,125,11,Cody Holaway,Paradise,114.49,272.16,142.88,226.8,641.83,Single-ply,SBD,M
Boys,125,DQ,Jose Avalos,Louise,122.74,,,,,Single-ply,SBD,M
Boys,125+,1,Santiago Leija,Natalia,126.55,324.32,183.7,267.62,775.64,Single-ply,SBD,M
Boys,125+,2,Collin Chesson,Saratoga West Hardin,129.18,308.44,201.85,256.28,766.57,Single-ply,SBD,M
Boys,125+,3,Carlos Giron,Pilot Point,140.34,317.51,192.78,254.01,764.3,Single-ply,SBD,M
Boys,125+,4,Fili Rincon,Lone Oak,129.18,328.85,190.51,242.67,762.04,Single-ply,SBD,M
Boys,125+,5,Wyatt Diaz,Stockdale,135.44,297.1,188.24,263.08,748.43,Single-ply,SBD,M
Boys,125+,6,Joel Wamget,Van Vleck,145.6,294.84,206.38,244.94,746.16,Single-ply,SBD,M
Boys,125+,7,De'vonze Franklin,Snook,147.24,306.17,179.17,249.48,734.82,Single-ply,SBD,M
Boys,125+,8,Julian Guerra,Sonora,125.74,288.03,213.19,229.06,730.28,Single-ply,SBD,M
Boys,125+,9,Joshua Leal,Karnes City,135.35,276.69,188.24,263.08,728.02,Single-ply,SBD,M
Boys,125+,10,Tyler Flowers,Bosqueville,141.61,299.37,161.03,254.01,714.41,Single-ply,SBD,M
Boys,125+,11,Dalton Hatcher,Scurry-Rosser,175.9,281.23,181.44,244.94,707.6,Single-ply,SBD,M
Boys,125+,12,Justin Trawick,Colorado City Colorado,128.19,272.16,181.44,244.94,698.53,Single-ply,SBD,M
Boys,125+,13,Kayl Powers,Collinsville,148.23,235.87,151.95,263.08,650.91,Single-ply,SBD,M
Boys,,DQ,JD Esquivel,Big Lake Reagan County,,,,,,Single-ply,SBD,M
Boys,,DQ,Christian Chamness,Mount Vernon,,,,,,Single-ply,SBD,M
