Place,Name,BirthYear,Country,BodyweightKg,Bench1Kg,Bench2Kg,Bench3Kg,Best3BenchKg,TotalKg,WeightClassKg,Division,Event,Sex,Equipment
1,Yasufumi Kimura,1975,JPN,58.6,190,195,197.5,197.5,197.5,59,Open,B,M,Single-ply
2,Konstantin Pavlov,1973,RUS,58.7,182.5,190,197.5,197.5,197.5,59,Open,B,M,Single-ply
3,Igor Garashchenko,1988,UKR,58.85,-185,-185,185,185,185,59,Open,B,M,Single-ply
4,Andrey Sphitser,1986,KAZ,59,170,180,-187.5,180,180,59,Open,B,M,Single-ply
5,Dariusz Wszoła,1978,POL,58.9,175,-180,-180,175,175,59,Open,B,M,Single-ply
DQ,Moises Garcia Trelles Niel,1973,PER,58.05,-150,-170,-180,,,59,Open,B,M,Single-ply
1,Hisayuki Nakayama,1963,JPN,63.65,222.5,229,233,233,233,66,Open,B,M,Single-ply
2,Ivan Chuprinko,1986,UKR,65.85,220,228.5,232.5,232.5,232.5,66,Open,B,M,Single-ply
3,Adam Balawejder,1981,POL,65.9,210,215,-229.5,215,215,66,Open,B,M,Single-ply
4,Virgilio Manuel,1974,FRA,65.5,197.5,-205,-207.5,197.5,197.5,66,Open,B,M,Single-ply
5,Andreas Frasl,1983,AUT,62.6,160,-167.5,167.5,167.5,167.5,66,Open,B,M,Single-ply
6,Vytautas Noreika,1986,LTU,65.9,157.5,162.5,-167.5,162.5,162.5,66,Open,B,M,Single-ply
7,John Turner,1981,GBR,64.55,-140,140,-150,140,140,66,Open,B,M,Single-ply
1,Daiki Kodama,1979,JPN,73.45,252.5,265,275,275,275,74,Open,B,M,Single-ply
2,Oleg Butenko,1983,KAZ,73.75,235,240,247.5,247.5,247.5,74,Open,B,M,Single-ply
3,Adrien Poinson,1991,FRA,72.4,245,-255,-255,245,245,74,Open,B,M,Single-ply
4,Amit Selberg,1976,SWE,73.35,235,-240,-240,235,235,74,Open,B,M,Single-ply
5,Tuomas Nikkilä,1978,FIN,72.55,220,232.5,-240,232.5,232.5,74,Open,B,M,Single-ply
6,Vitali Parymon,1986,BLR,73.2,-220,220,-230,220,220,74,Open,B,M,Single-ply
7,Christian Hedman,1982,SWE,73.5,220,-235,-240,220,220,74,Open,B,M,Single-ply
8,Andriy Balenkov,1981,UKR,73.75,210,220,-242.5,220,220,74,Open,B,M,Single-ply
9,Toni Kuusi,1983,FIN,73.85,197.5,212.5,-222.5,212.5,212.5,74,Open,B,M,Single-ply
10,Linas Kriunas,1984,LTU,72.75,195,-205,205,205,205,74,Open,B,M,Single-ply
11,Raik Guenterberg,1989,GER,73.4,195,202.5,-210,202.5,202.5,74,Open,B,M,Single-ply
12,Morten Rasmussen,1978,DEN,73.8,-180,180,-197.5,180,180,74,Open,B,M,Single-ply
13,Štěpán Vondráček,1974,CZE,73.85,-170,170,-185,170,170,74,Open,B,M,Single-ply
DQ,Valery Parymon,1986,BLR,73.85,-235,-235,-242.5,,,74,Open,B,M,Single-ply
1,Sergey Kniazev,1976,RUS,81.85,290,295,-302.5,295,295,83,Open,B,M,Single-ply
2,Askar Shokhanov,1983,KAZ,81.05,270,280,-285,280,280,83,Open,B,M,Single-ply
3,Yuki Fukushima,1986,JPN,81.75,270,280,-302.5,280,280,83,Open,B,M,Single-ply
4,Erbol Nauanov,1989,KAZ,81.8,272.5,-282.5,-282.5,272.5,272.5,83,Open,B,M,Single-ply
5,Daniel Miller,1988,POL,82.4,250,-260,260,260,260,83,Open,B,M,Single-ply
6,Daniel Kowalczyk,1977,POL,82.75,235,245,255,255,255,83,Open,B,M,Single-ply
7,Jonas Nordin,1980,SWE,82.6,-242.5,242.5,-255,242.5,242.5,83,Open,B,M,Single-ply
8,Gints Reinholds,1983,LAT,82,207.5,-215,-220,207.5,207.5,83,Open,B,M,Single-ply
9,Denis Korshunov,1982,UZB,82.05,-200,200,-212.5,200,200,83,Open,B,M,Single-ply
10,Aaron Lohan,1983,GBR,82.35,185,192.5,-202.5,192.5,192.5,83,Open,B,M,Single-ply
11,Ricardo Fitzpatrick,1980,RSA,79.85,180,190,-200,190,190,83,Open,B,M,Single-ply
12,Dainius Juodgudis,1971,LTU,78.25,175,-185,-192.5,175,175,83,Open,B,M,Single-ply
DQ,Daniel Thurman,1968,USA,82.15,-262.5,-262.5,-282.5,,,83,Open,B,M,Single-ply
1,Jan Wegiera,1965,POL,91.8,295,302.5,-315,302.5,302.5,93,Open,B,M,Single-ply
2,Volodymyr Bettiar,1984,UKR,92.7,275,287.5,300,300,300,93,Open,B,M,Single-ply
3,Adam Mamola,1977,USA,92.15,-285,297.5,-303.5,297.5,297.5,93,Open,B,M,Single-ply
4,Roman Ogorodnik,1989,KAZ,89.1,277.5,-287.5,-287.5,277.5,277.5,93,Open,B,M,Single-ply
5,Simon Kankkonen,1982,FIN,92.5,265,275,-287.5,275,275,93,Open,B,M,Single-ply
6,Yasuki Yamashita,1991,JPN,92.55,260,275,-287.5,275,275,93,Open,B,M,Single-ply
7,Allan Riis,1971,DEN,92.6,-255,260,-267.5,260,260,93,Open,B,M,Single-ply
8,Thomas Wetzstein,1974,AUT,92.45,245,255,-275,255,255,93,Open,B,M,Single-ply
9,Patrik Karlsson,1987,SWE,92.9,-252.5,252.5,-257.5,252.5,252.5,93,Open,B,M,Single-ply
DQ,Artak Asrian,1979,NED,86.7,-217.5,-217.5,-217.5,,,93,Open,B,M,Single-ply
DQ,Grzegorz Nocek,1973,POL,88.3,-265,-265,-265,,,93,Open,B,M,Single-ply
DQ,Luke Hanifen,1981,USA,89.15,-255,-255,-255,,,93,Open,B,M,Single-ply
DQ,Kitsui Masahito,1978,HKG,92,-250,-250,-250,,,93,Open,B,M,Single-ply
DQ,Munkhbayar Lamjav,1976,MGL,92.45,-265,-265,-265,,,93,Open,B,M,Single-ply
DQ,Maxut Davletkaliyev,1984,KAZ,92.5,-262.5,-262.5,-262.5,,,93,Open,B,M,Single-ply
1,Vitaliy Kireev,1985,RUS,103.5,300,307.5,312.5,312.5,312.5,105,Open,B,M,Single-ply
2,Petri Kuosma,1979,FIN,104.65,300,310,-317.5,310,310,105,Open,B,M,Single-ply
3,Mikael Lundin,1983,SWE,102.35,285,290,307.5,307.5,307.5,105,Open,B,M,Single-ply
4,Sergey Vaigant,1989,KAZ,102.85,300,307.5,-317.5,307.5,307.5,105,Open,B,M,Single-ply
5,Andre Mo Dag,1979,NOR,101.95,277.5,287.5,300,300,300,105,Open,B,M,Single-ply
6,Aliaksei Stasevich,1986,BLR,103.5,287.5,300,-310,300,300,105,Open,B,M,Single-ply
7,Virginijus Germanas,1981,LTU,103.1,285,295,-307.5,295,295,105,Open,B,M,Single-ply
8,Timothy Anderson,1972,USA,100.55,287.5,-300,-310,287.5,287.5,105,Open,B,M,Single-ply
9,Ruslan Fisun,1977,UKR,102.95,267.5,-280,-280,267.5,267.5,105,Open,B,M,Single-ply
10,Michio Shibata,1978,JPN,104.85,255,265,-300,265,265,105,Open,B,M,Single-ply
11,Milan Sellinger,1984,CZE,104.7,255,-262.5,-262.5,255,255,105,Open,B,M,Single-ply
12,Ingimundur Björgvinsson,1982,ISL,103.3,250,-260,-265,250,250,105,Open,B,M,Single-ply
DQ,Patrick Van Der Putten,1980,NED,103.8,-260,-260,-267.5,,,105,Open,B,M,Single-ply
DQ,Mariusz Hadrysiak,1961,POL,104.95,-280,-280,-285,,,105,Open,B,M,Single-ply
1,Christoffer Öberg,1985,SWE,116,307.5,312.5,320,320,320,120,Open,B,M,Single-ply
2,Sergey Selezen,1980,RUS,120,307.5,312.5,320,320,320,120,Open,B,M,Single-ply
3,Ruslan Pavlikov,1978,RUS,112.5,300,305,312.5,312.5,312.5,120,Open,B,M,Single-ply
4,Markus Larsson,1974,SWE,118.15,295,-307.5,307.5,307.5,307.5,120,Open,B,M,Single-ply
5,Jeffrey Snyder,1971,USA,119.3,297.5,302.5,-310,302.5,302.5,120,Open,B,M,Single-ply
6,Fridrich Matejík,1983,SVK,119.9,-270,270,292.5,292.5,292.5,120,Open,B,M,Single-ply
7,Zbyněk Krejča,1974,CZE,118.3,282.5,290,-292.5,290,290,120,Open,B,M,Single-ply
8,Stanislav Janes,1974,SVK,119.3,-290,290,-307.5,290,290,120,Open,B,M,Single-ply
9,Shuji Goto,1968,JPN,114.75,260,280,-307.5,280,280,120,Open,B,M,Single-ply
10,Jukka Seppänen,1977,FIN,118.4,280,-310,-312.5,280,280,120,Open,B,M,Single-ply
11,Yuriy Kovalchuk,1979,UKR,119.65,275,-285,-297.5,275,275,120,Open,B,M,Single-ply
12,Marcel Jahnke,1981,GER,115.95,255,-262.5,-262.5,255,255,120,Open,B,M,Single-ply
13,Linas Palivonas,1981,LTU,119,235,245,250,250,250,120,Open,B,M,Single-ply
14,Raimundas Blazevicius,1983,LTU,109.75,215,225,-232.5,225,225,120,Open,B,M,Single-ply
15,Andre Cloete,1979,RSA,114.65,202.5,-280,-280,202.5,202.5,120,Open,B,M,Single-ply
DQ,Rustam Yulchiev,1977,KAZ,112.95,-317.5,-317.5,-317.5,,,120,Open,B,M,Single-ply
DQ,Taavi Pehme,1983,EST,115.6,-265,-265,-265,,,120,Open,B,M,Single-ply
DQ,Siarhei Kuznecov,1981,BLR,115.65,-252.5,-262.5,-270,,,120,Open,B,M,Single-ply
DQ,Brady Stewart,1982,USA,119.6,-307.5,-315,-315,,,120,Open,B,M,Single-ply
DQ,Ove Lehto,1972,FIN,119.65,-295,-295,-307.5,,,120,Open,B,M,Single-ply
1,Jonathan Leo,1977,USA,152.9,347.5,358.5,360.5,360.5,360.5,120+,Open,B,M,Single-ply
2,Shinji Ueda,1972,JPN,125.6,345,-350,359,359,359,120+,Open,B,M,Single-ply
3,Kenneth Sandvik,1975,FIN,140.9,335,337.5,342.5,342.5,342.5,120+,Open,B,M,Single-ply
4,Fredrik Svensson,1979,SWE,152.1,327.5,-337.5,342.5,342.5,342.5,120+,Open,B,M,Single-ply
5,Martin Borgland Rønning,1984,NOR,156.7,325,332.5,340,340,340,120+,Open,B,M,Single-ply
6,Alastair McColl,1981,NOR,137.3,325,-335,-337.5,325,325,120+,Open,B,M,Single-ply
7,Ewald Enzinger,1966,AUT,144.75,315,-350,-350,315,315,120+,Open,B,M,Single-ply
8,Hubert Sztorc,1980,POL,124,290,300,-315,300,300,120+,Open,B,M,Single-ply
9,Jacob Stegelmann,1980,DEN,132.05,285,292.5,-302.5,292.5,292.5,120+,Open,B,M,Single-ply
10,Jaroslav Šoukal,1972,CZE,150.89,275,287.5,-297.5,287.5,287.5,120+,Open,B,M,Single-ply
11,Siim Rast,1988,EST,181.5,280,287.5,-292.5,287.5,287.5,120+,Open,B,M,Single-ply
12,Vitaljus Buzas,1986,LTU,126.89,260,270,-277.5,270,270,120+,Open,B,M,Single-ply
DQ,Laszlo Santa,1986,HUN,152.25,-358,-358,-360,,,120+,Open,B,M,Single-ply
1,Nikolay Semenov,1995,RUS,51.4,115,120,125,125,125,53,Sub-Juniors,B,M,Single-ply
2,Abdulaziz Sait,1995,KAZ,53,105,110,-115,110,110,53,Sub-Juniors,B,M,Single-ply
3,Gabriel Gigout,1996,USA,50.1,97.5,105,-125,105,105,53,Sub-Juniors,B,M,Single-ply
4,Juho Niskanen,1995,FIN,51,85,-92.5,-92.5,85,85,53,Sub-Juniors,B,M,Single-ply
5,Lukas Bugys,1997,LTU,53,77.5,82.5,-87.5,82.5,82.5,53,Sub-Juniors,B,M,Single-ply
1,Matti Christensen,1995,DEN,58.7,165,172.5,-177.5,172.5,172.5,59,Sub-Juniors,B,M,Single-ply
2,Bulat Samkaev,1995,RUS,58.5,135,142.5,147.5,147.5,147.5,59,Sub-Juniors,B,M,Single-ply
3,Alisher Makhmudov,1995,KAZ,57.7,137.5,142.5,-147.5,142.5,142.5,59,Sub-Juniors,B,M,Single-ply
4,Dainius Apdulskis,1996,LTU,58.8,135,-140,-145,135,135,59,Sub-Juniors,B,M,Single-ply
5,Ville Rautiainen Juuso,1996,FIN,58.9,110,117.5,125,125,125,59,Sub-Juniors,B,M,Single-ply
1,Valery Vorotilin,1995,RUS,65.05,155,160,165,165,165,66,Sub-Juniors,B,M,Single-ply
2,Artur Bialek,1995,POL,64.9,142.5,147.5,150,150,150,66,Sub-Juniors,B,M,Single-ply
3,Patryk Krzyszczak,1995,POL,62.8,142.5,-147.5,147.5,147.5,147.5,66,Sub-Juniors,B,M,Single-ply
4,Ihar Yuazapchuk,1996,BLR,65.35,145,-150,-150,145,145,66,Sub-Juniors,B,M,Single-ply
5,Sawyer Haubert,1997,USA,65.55,-135,135,-147.5,135,135,66,Sub-Juniors,B,M,Single-ply
6,Tadahiro Fukuda,1996,JPN,65.4,132.5,-140,-147.5,132.5,132.5,66,Sub-Juniors,B,M,Single-ply
7,Deimantas Urbietis,1996,LTU,63.65,115,-122.5,-125,115,115,66,Sub-Juniors,B,M,Single-ply
DQ,Akzholtoi Ramatov,1996,KGZ,65.65,-155,-160,-162.5,,,66,Sub-Juniors,B,M,Single-ply
1,Klaudijus Malevskis,1996,LTU,73.2,-165,165,175,175,175,74,Sub-Juniors,B,M,Single-ply
2,Marat Aminov,1995,RUS,73.6,175,-185,-185,175,175,74,Sub-Juniors,B,M,Single-ply
3,Teemu Hällfors,1995,FIN,73.7,-172.5,172.5,-177.5,172.5,172.5,74,Sub-Juniors,B,M,Single-ply
4,Grazvydas Rimkus,1995,LTU,73.8,145,155,-167.5,155,155,74,Sub-Juniors,B,M,Single-ply
5,Szymon Glowienke,1997,POL,71.5,-137.5,137.5,-145,137.5,137.5,74,Sub-Juniors,B,M,Single-ply
6,Dean Price,1995,NZL,72.65,130,-137.5,-137.5,130,130,74,Sub-Juniors,B,M,Single-ply
1,Dmitriy Korolev,1997,KAZ,81.8,185,195,200,200,200,83,Sub-Juniors,B,M,Single-ply
2,Bahruz Tagiev,1995,RUS,80.8,152.5,160,-165,160,160,83,Sub-Juniors,B,M,Single-ply
3,Cezary Rzempoluch,1995,POL,82.1,160,-165,-165,160,160,83,Sub-Juniors,B,M,Single-ply
4,Marcin Busz,1996,POL,80,150,157.5,-162.5,157.5,157.5,83,Sub-Juniors,B,M,Single-ply
5,Gage Stuttgen,1995,USA,74.95,137.5,145,-160,145,145,83,Sub-Juniors,B,M,Single-ply
6,Laurynas Zukauskas,1996,LTU,82.6,145,-150,-150,145,145,83,Sub-Juniors,B,M,Single-ply
1,Yevgeniy Parshin,1995,KAZ,90.85,210,220,232.5,232.5,232.5,93,Sub-Juniors,B,M,Single-ply
2,Logan Hunt,1995,USA,89.2,177.5,-185,192.5,192.5,192.5,93,Sub-Juniors,B,M,Single-ply
3,Jokubas Stasiulis,1995,LTU,91.15,185,192.5,-197.5,192.5,192.5,93,Sub-Juniors,B,M,Single-ply
4,Artem Golyak,1995,RUS,92.05,-190,190,-197.5,190,190,93,Sub-Juniors,B,M,Single-ply
5,Jalmari Meriluoto,1995,FIN,92.75,150,157.5,-165,157.5,157.5,93,Sub-Juniors,B,M,Single-ply
6,Vladislav Shabanov,1997,UKR,84.25,140,150,-157.5,150,150,93,Sub-Juniors,B,M,Single-ply
7,Augustinas Pimpe,1996,LTU,90.45,135,140,-152.5,140,140,93,Sub-Juniors,B,M,Single-ply
1,Kevin Jaeger,1995,GER,104.65,-237.5,237.5,252.5,252.5,252.5,105,Sub-Juniors,B,M,Single-ply
2,Artem Agadzhanyan,1995,LAT,103.1,-210,-210,210,210,210,105,Sub-Juniors,B,M,Single-ply
3,Evgeniy Roenko,1996,RUS,99.4,185,195,197.5,197.5,197.5,105,Sub-Juniors,B,M,Single-ply
4,Matias Hyttinen,1995,FIN,104.1,-190,190,197.5,197.5,197.5,105,Sub-Juniors,B,M,Single-ply
5,Michal Gwardzik,1995,POL,99.9,175,180,190,190,190,105,Sub-Juniors,B,M,Single-ply
6,Tom Kendall,1995,GBR,103.9,-135,135,150,150,150,105,Sub-Juniors,B,M,Single-ply
1,Fedir Lemak,1995,UKR,113.8,210,222.5,-245,222.5,222.5,120,Sub-Juniors,B,M,Single-ply
2,Miras Akpalenov,1995,KAZ,119,180,185,187.5,187.5,187.5,120,Sub-Juniors,B,M,Single-ply
3,Evgeniy Osadchiy,1997,RUS,107,162.5,170,185,185,185,120,Sub-Juniors,B,M,Single-ply
1,Samuel Kelly,1995,USA,133,182.5,195,-205,195,195,120+,Sub-Juniors,B,M,Single-ply
2,Vladimir Savenkov,1995,RUS,123.95,90,100,105,105,105,120+,Sub-Juniors,B,M,Single-ply
1,Kirill Krut,1991,RUS,52.9,142.5,150,-157.5,150,150,53,Juniors,B,M,Single-ply
2,Eskil Myrvang Fredrik,1990,NOR,49.4,140,-147.5,-150,140,140,53,Juniors,B,M,Single-ply
3,Pawel Hadas,1993,POL,52.5,120,125,127.5,127.5,127.5,53,Juniors,B,M,Single-ply
4,Akzhol Alimbek Uulu,1994,KGZ,52.8,-122.5,127.5,-130,127.5,127.5,53,Juniors,B,M,Single-ply
5,Husnuddin Buriev,1994,UZB,52.6,110,-115,-127.5,110,110,53,Juniors,B,M,Single-ply
6,Siarhei Varanovich,1992,BLR,52.8,100,105,107.5,107.5,107.5,53,Juniors,B,M,Single-ply
1,Oleg Smirnov,1990,RUS,57.8,175,180,185,185,185,59,Juniors,B,M,Single-ply
2,William Garcia,1990,USA,57.3,165,175,-180,175,175,59,Juniors,B,M,Single-ply
3,Grzegorz Janka,1990,POL,58.9,142.5,-147.5,147.5,147.5,147.5,59,Juniors,B,M,Single-ply
4,Azamat Alymbek Uulu,1992,KGZ,58.7,140,-145,145,145,145,59,Juniors,B,M,Single-ply
DQ,Rikito Yamanaka,1990,JPN,58.5,-137.5,-137.5,-142.5,,,59,Juniors,B,M,Single-ply
DQ,Abdulkarim Karaman,1994,KAZ,58.6,-185,-185,,,,59,Juniors,B,M,Single-ply
1,Danis Amirov,1993,KAZ,65.5,185,190,197.5,197.5,197.5,66,Juniors,B,M,Single-ply
2,Yeldos Yermakhanov,1990,KAZ,65.15,185,190,-197.5,190,190,66,Juniors,B,M,Single-ply
3,Alexander Molin,1992,RUS,65.5,180,185,-197.5,185,185,66,Juniors,B,M,Single-ply
4,Rafael Sadykov,1994,RUS,65.25,170,-175,-180,170,170,66,Juniors,B,M,Single-ply
5,Rafal Bialek,1990,POL,65.3,-160,-160,160,160,160,66,Juniors,B,M,Single-ply
6,Frederik Lund,1993,DEN,64.25,145,152.5,157.5,157.5,157.5,66,Juniors,B,M,Single-ply
7,Patrick Hartung,1994,GER,65,130,140,145,145,145,66,Juniors,B,M,Single-ply
8,Marcin Kosowski,1990,POL,65.7,145,-175,-175,145,145,66,Juniors,B,M,Single-ply
DQ,Aliaksandr Hontareu,1990,BLR,65.65,-150,-150,-150,,,66,Juniors,B,M,Single-ply
1,Talgat Tlenbayev,1990,KAZ,72.5,215,220,-231.5,220,220,74,Juniors,B,M,Single-ply
2,Yevgen Krysa,1993,UKR,71.85,210,217.5,-220,217.5,217.5,74,Juniors,B,M,Single-ply
3,Stanislav Volskiy,1992,RUS,73.65,205,-212.5,-212.5,205,205,74,Juniors,B,M,Single-ply
4,Cedric Merle,1990,FRA,73.45,-190,190,-205,190,190,74,Juniors,B,M,Single-ply
5,Alex Smith,1990,USA,73.3,160,175,180,180,180,74,Juniors,B,M,Single-ply
6,Yusuke Sumida,1992,JPN,73.5,180,-187.5,-187.5,180,180,74,Juniors,B,M,Single-ply
7,Paulius Pupinis,1994,LTU,69.6,160,167.5,-172.5,167.5,167.5,74,Juniors,B,M,Single-ply
DQ,Sergejs Timofejevs,1994,LAT,73.1,-210,-210,-212.5,,,74,Juniors,B,M,Single-ply
1,Roman Martynenko,1990,UKR,80.4,240,250,255.5,255.5,255.5,83,Juniors,B,M,Single-ply
2,Denis Kozlov,1991,KAZ,80.9,230,-237.5,-237.5,230,230,83,Juniors,B,M,Single-ply
3,Goki Omuro,1993,JPN,81.95,190,202.5,210,210,210,83,Juniors,B,M,Single-ply
4,Mariusz Hintzke,1994,POL,82.25,210,-215,-215,210,210,83,Juniors,B,M,Single-ply
5,Janeks Selkovskis,1990,LAT,81.9,200,-205,-210,200,200,83,Juniors,B,M,Single-ply
6,Yuriy Antonov,1991,UZB,79.3,170,180,192.5,192.5,192.5,83,Juniors,B,M,Single-ply
7,Mantas Kaniusas,1994,LTU,81.6,175,182.5,190,190,190,83,Juniors,B,M,Single-ply
8,Tooru Kosuge,1990,JPN,81.95,-175,180,-192.5,180,180,83,Juniors,B,M,Single-ply
9,Aurimas Artimavicius,1991,LTU,82.7,170,180,-190,180,180,83,Juniors,B,M,Single-ply
10,Benjamin Haugk,1990,GER,80.8,175,-180,-187.5,175,175,83,Juniors,B,M,Single-ply
1,Bogdan Grynevych,1990,UKR,92.6,265,272.5,285.5,285.5,285.5,93,Juniors,B,M,Single-ply
2,Dimitriy Li,1991,KAZ,91.75,260,265,-272.5,265,265,93,Juniors,B,M,Single-ply
3,Nazar Dyachuk,1991,UKR,91.35,-237.5,240,-245,240,240,93,Juniors,B,M,Single-ply
4,Andrey Ryzhkov,1992,RUS,92,235,240,-245,240,240,93,Juniors,B,M,Single-ply
5,Roger Narvarsete,1990,NOR,92.45,235,237.5,-247.5,237.5,237.5,93,Juniors,B,M,Single-ply
6,Tomohisa Murano,1994,JPN,85.1,200,220,-240,220,220,93,Juniors,B,M,Single-ply
DQ,Richard Pena,1994,USA,92.05,-197.5,-197.5,-197.5,,,93,Juniors,B,M,Single-ply
1,Egor Savelyev,1994,RUS,104.95,267.5,275,285,285,285,105,Juniors,B,M,Single-ply
2,Markus Ahonen,1990,FIN,104.4,255,260,-265,260,260,105,Juniors,B,M,Single-ply
3,Daniel Howsmon,1990,USA,102.2,237.5,247.5,-260,247.5,247.5,105,Juniors,B,M,Single-ply
4,Yosuke Horiguchi,1993,JPN,103.7,235,245,-252.5,245,245,105,Juniors,B,M,Single-ply
5,Erik Fredriksen,1992,NOR,96.25,225,235,-247.5,235,235,105,Juniors,B,M,Single-ply
6,Jakob Thrane Mainz,1993,DEN,104.7,-215,215,-222.5,215,215,105,Juniors,B,M,Single-ply
7,Jan Paukner,1993,CZE,98.9,175,185,200,200,200,105,Juniors,B,M,Single-ply
1,Ivan Goryachev,1990,RUS,119.5,280,287.5,300,300,300,120,Juniors,B,M,Single-ply
2,Joachim Skaaren,1991,NOR,119.25,257.5,265,275,275,275,120,Juniors,B,M,Single-ply
3,Grzegorz Piwonski,1990,POL,119.05,-250,250,-265,250,250,120,Juniors,B,M,Single-ply
4,Rafal Gawart,1991,POL,118.75,225,-230,-250,225,225,120,Juniors,B,M,Single-ply
5,Toshihiro Hanada,1991,JPN,105.05,-210,210,-250,210,210,120,Juniors,B,M,Single-ply
1,Ryan Carrillo,1991,USA,155.55,267.5,277.5,285,285,285,120+,Juniors,B,M,Single-ply
2,Dmitriy Dokalin,1990,RUS,133.65,275,282.5,-287.5,282.5,282.5,120+,Juniors,B,M,Single-ply
3,Ivan Podrez,1991,UKR,153.6,255,267.5,280,280,280,120+,Juniors,B,M,Single-ply
4,Petr Toman,1990,CZE,125.65,260,267.5,277.5,277.5,277.5,120+,Juniors,B,M,Single-ply
5,Graham Mellor,1994,GBR,182.7,240,257.5,-270,257.5,257.5,120+,Juniors,B,M,Single-ply
6,Kamil Jarota,1991,POL,147.9,250,-262.5,-270,250,250,120+,Juniors,B,M,Single-ply
1,Anastasya Strufa,1986,RUS,46.05,105,110,-115,110,110,47,Open,B,F,Single-ply
2,Svetlana Iskhakova,1966,KAZ,45.55,70,75,-80,75,75,47,Open,B,F,Single-ply
3,Alicja Urbaniak,1988,POL,46.9,60,65,67.5,67.5,67.5,47,Open,B,F,Single-ply
1,Anna Lynge,1974,SWE,51.65,-130,130.5,138,138,138,52,Open,B,F,Single-ply
2,Oxana Pochinkina,1986,RUS,51.2,125,130,-137.5,130,130,52,Open,B,F,Single-ply
3,Marcela Sandvik,1974,FIN,51.45,110,115,-131,115,115,52,Open,B,F,Single-ply
4,Ala Lamaka,1980,BLR,51.25,-92.5,-92.5,92.5,92.5,92.5,52,Open,B,F,Single-ply
DQ,Kaori Nagaya-Shirakawa,1963,JPN,51.7,-127.5,-127.5,-131,,,52,Open,B,F,Single-ply
1,Larisa Kotkova,1974,RUS,54.75,-140,140,-150.5,140,140,57,Open,B,F,Single-ply
2,Ganna Gonchar,1993,UKR,56.8,120,127.5,132.5,132.5,132.5,57,Open,B,F,Single-ply
3,Megumi Nagahama,1987,JPN,56.5,125,-130,-130,125,125,57,Open,B,F,Single-ply
4,Nina Eriksson,1989,SWE,54.35,-120,120,-125,120,120,57,Open,B,F,Single-ply
5,Daiva Zaroviene,1965,LTU,56.4,105,112.5,-127.5,112.5,112.5,57,Open,B,F,Single-ply
1,Tetyana Akhmamyetyeva,1985,UKR,62.95,-140,142.5,150,150,150,63,Open,B,F,Single-ply
2,Valentina Nelyubova,1966,RUS,62.25,130,140,147.5,147.5,147.5,63,Open,B,F,Single-ply
3,Valida Iskandarova,1974,KAZ,62.8,122.5,127.5,130,130,130,63,Open,B,F,Single-ply
4,Josephine Werngren,1976,SWE,62.8,112.5,117.5,-132.5,117.5,117.5,63,Open,B,F,Single-ply
5,Jadwiga Radwanska,1975,POL,57.85,110,-115,-117.5,110,110,63,Open,B,F,Single-ply
DQ,Kazumi Tachibana Hayashi,1971,JPN,62.3,-85,-85,-85,,,63,Open,B,F,Single-ply
1,Anastassiya Guseva,1989,KAZ,67.05,160,165,170,170,170,72,Open,B,F,Single-ply
2,Yulia Chistiakova,1989,RUS,72,145,150,155,155,155,72,Open,B,F,Single-ply
3,Karolina Arvidson,1985,SWE,71.4,145,152.5,-167.5,152.5,152.5,72,Open,B,F,Single-ply
4,Ichinnorov Darkhanbaatar,1989,MGL,71.6,152.5,-155,-155,152.5,152.5,72,Open,B,F,Single-ply
5,Inger Blikra,1961,NOR,71.3,-135,135,-140,135,135,72,Open,B,F,Single-ply
6,Ankie Timmers,1986,NED,71.85,130,135,-140,135,135,72,Open,B,F,Single-ply
7,Jana Špinglová,1984,CZE,70.6,110,-120,120,120,120,72,Open,B,F,Single-ply
8,Vivien Roeder,1988,GER,71.6,110,117.5,-122.5,117.5,117.5,72,Open,B,F,Single-ply
9,Ursula Forys,1965,POL,71.65,110,115,-122.5,115,115,72,Open,B,F,Single-ply
DQ,Lina Chaladauskaite,1982,LTU,70.7,-80,-80,-80,,,72,Open,B,F,Single-ply
DQ,Devan Curley,1987,USA,70.85,-145,-145,-152.5,,,72,Open,B,F,Single-ply
1,Ielja Strik,1973,NED,83.8,172.5,175,180,180,180,84,Open,B,F,Single-ply
2,Lyudmila Protchenko,1986,RUS,82.8,162.5,170,177.5,177.5,177.5,84,Open,B,F,Single-ply
3,Hana Takáčová,1954,CZE,84,135,140,142.5,142.5,142.5,84,Open,B,F,Single-ply
4,Cydney Smith,1971,USA,78.8,127.5,135,140,140,140,84,Open,B,F,Single-ply
DQ,Alena Krčmářová,1975,CZE,76.25,-87.5,-87.5,-87.5,,,84,Open,B,F,Single-ply
1,Sandra Lönn,1974,SWE,104.3,190,-200,210,210,210,84+,Open,B,F,Single-ply
2,Natalia Zotova,1975,RUS,123.35,192.5,202.5,207.5,207.5,207.5,84+,Open,B,F,Single-ply
3,Ágnes Szabó,1988,HUN,105.7,160,-167.5,167.5,167.5,167.5,84+,Open,B,F,Single-ply
1,Daniela Kolesnik,1999,RUS,42.4,65,70,-72.5,70,70,43,Sub-Juniors,B,F,Single-ply
2,Kotomi Hayakawa,1995,JPN,42.45,40,-55,55,55,55,43,Sub-Juniors,B,F,Single-ply
1,Mariya Ilinska,1995,UKR,46.45,72.5,77.5,-82.5,77.5,77.5,47,Sub-Juniors,B,F,Single-ply
2,Anastasia Kaneva,1998,RUS,46.75,52.5,57.5,62.5,62.5,62.5,47,Sub-Juniors,B,F,Single-ply
1,Kaitlain Link,1995,USA,51.7,75,77.5,80,80,80,52,Sub-Juniors,B,F,Single-ply
2,Rozalia Taipova,1995,RUS,51.7,72.5,77.5,-82.5,77.5,77.5,52,Sub-Juniors,B,F,Single-ply
3,Cassandra Freeman,1995,USA,51.1,75,-80,-80,75,75,52,Sub-Juniors,B,F,Single-ply
4,Marta Sroczyk,1995,POL,50.8,72.5,-77.5,-77.5,72.5,72.5,52,Sub-Juniors,B,F,Single-ply
1,Drew Beil,1996,USA,55.9,-92.5,92.5,-100,92.5,92.5,57,Sub-Juniors,B,F,Single-ply
2,Diana Vedyushkina,1996,KAZ,55.1,87.5,-92.5,-92.5,87.5,87.5,57,Sub-Juniors,B,F,Single-ply
3,Natalia Shabusova,1995,RUS,56.7,75,80,-92.5,80,80,57,Sub-Juniors,B,F,Single-ply
4,Aneta Struck,1995,POL,56.85,57.5,-62.5,-62.5,57.5,57.5,57,Sub-Juniors,B,F,Single-ply
1,Ludmila Stepinina,1996,RUS,58.45,85,90,95,95,95,63,Sub-Juniors,B,F,Single-ply
2,Tereza Bečvaříková,1995,CZE,61.1,-90,90,-97.5,90,90,63,Sub-Juniors,B,F,Single-ply
3,Kamila Lorek,1996,POL,57.9,85,87.5,-90,87.5,87.5,63,Sub-Juniors,B,F,Single-ply
4,Sammantha Perrine,1995,USA,61.45,77.5,87.5,-90,87.5,87.5,63,Sub-Juniors,B,F,Single-ply
5,Ielyzaveta Solopan,1997,UKR,61.85,72.5,77.5,80,80,80,63,Sub-Juniors,B,F,Single-ply
6,Gintare Uldukyte,1995,LTU,61.75,-65,65,-72.5,65,65,63,Sub-Juniors,B,F,Single-ply
1,Frida Leandersson,1995,SWE,66.1,92.5,97.5,-102.5,97.5,97.5,72,Sub-Juniors,B,F,Single-ply
2,Anna Heid,1996,USA,66.6,85,90,-100,90,90,72,Sub-Juniors,B,F,Single-ply
3,Yuliya Orobets,1995,UKR,67.8,90,-95,-95,90,90,72,Sub-Juniors,B,F,Single-ply
4,Daria Prudnikova,1995,RUS,69.3,80,-87.5,-92.5,80,80,72,Sub-Juniors,B,F,Single-ply
1,Maria Petrunina,1995,RUS,79.4,90,97.5,-107.5,97.5,97.5,84,Sub-Juniors,B,F,Single-ply
2,Malgorzata Mazur,1995,POL,76.5,-80,-80,80,80,80,84,Sub-Juniors,B,F,Single-ply
1,Zulfiya Zholmurzina,1995,KAZ,109.5,100,110,115,115,115,84+,Sub-Juniors,B,F,Single-ply
2,Iulia Radchenko,1996,RUS,91.7,100,-110,-110,100,100,84+,Sub-Juniors,B,F,Single-ply
3,Drew Rath,1995,USA,142.85,87.5,-102.5,-112.5,87.5,87.5,84+,Sub-Juniors,B,F,Single-ply
1,Megan Ainsworth,1992,GBR,39,55,60,62.5,62.5,62.5,43,Juniors,B,F,Single-ply
2,Anastasia Kulikova,1991,RUS,42.6,45,57.5,-62.5,57.5,57.5,43,Juniors,B,F,Single-ply
1,Yelyzaveta Ban,1990,UKR,46.1,90,95,97.5,97.5,97.5,47,Juniors,B,F,Single-ply
2,Zinaida Evdokimova,1990,RUS,46.85,80,92.5,97.5,97.5,97.5,47,Juniors,B,F,Single-ply
1,Audrey Mingot,1993,FRA,51.15,90,95,97.5,97.5,97.5,52,Juniors,B,F,Single-ply
2,Ramilya Sirochetdinova,1993,UZB,52,90,97.5,-100,97.5,97.5,52,Juniors,B,F,Single-ply
3,Misaki Arimoto,1992,JPN,51.5,85,90,-97.5,90,90,52,Juniors,B,F,Single-ply
4,Mareen Wendlandt,1991,GER,51.5,77.5,82.5,-87.5,82.5,82.5,52,Juniors,B,F,Single-ply
DQ,Inna Filimonova,1994,RUS,50.2,-105,-105,-105,,,52,Juniors,B,F,Single-ply
1,Tatiana Gabidulina,1992,RUS,56.55,-112.5,-112.5,112.5,112.5,112.5,57,Juniors,B,F,Single-ply
2,Eszter Kovacs,1992,HUN,56.65,112.5,-115,-115,112.5,112.5,57,Juniors,B,F,Single-ply
3,Misato Ikeda,1991,JPN,55.35,90,-100,-112.5,90,90,57,Juniors,B,F,Single-ply
4,Monika Sroczyk,1992,POL,55.85,80,85,-92.5,85,85,57,Juniors,B,F,Single-ply
5,Milda Bruvere,1994,LTU,56.9,55,60,-65,60,60,57,Juniors,B,F,Single-ply
1,Valeriya Yaragina,1993,KAZ,61.55,120,125,132.5,132.5,132.5,63,Juniors,B,F,Single-ply
2,Ekaterina Filyar,1990,RUS,62.55,-115,-115,117.5,117.5,117.5,63,Juniors,B,F,Single-ply
3,Vira Boboshko,1993,UKR,62.9,105,112.5,117.5,117.5,117.5,63,Juniors,B,F,Single-ply
4,Fanney Hauksdóttir,1992,ISL,58,-110,110,115,115,115,63,Juniors,B,F,Single-ply
5,Iveta Jurčíková,1992,SVK,62.3,95,100,112.5,112.5,112.5,63,Juniors,B,F,Single-ply
6,Erika Andersen,1991,DEN,62.1,90,-95,95,95,95,63,Juniors,B,F,Single-ply
7,Kayla James,1990,USA,62.65,82.5,-90,-90,82.5,82.5,63,Juniors,B,F,Single-ply
1,Zhadyra Kabiyeva,1992,KAZ,69.85,-125,125,-130,125,125,72,Juniors,B,F,Single-ply
2,Emi Nakano,1993,JPN,71,95,102.5,105,105,105,72,Juniors,B,F,Single-ply
3,Viktoria Vazhenina,1992,RUS,70.95,95,-102.5,102.5,102.5,102.5,72,Juniors,B,F,Single-ply
4,Maaike De Vries,1994,NED,68.1,90,-95,95,95,95,72,Juniors,B,F,Single-ply
1,Natalya Kuzmina,1992,KAZ,83.3,-162.5,162.5,-167.5,162.5,162.5,84,Juniors,B,F,Single-ply
2,Ekaterina Baranova,1992,RUS,83.6,140,145,-165,145,145,84,Juniors,B,F,Single-ply
3,Casey Alba,1990,USA,82.05,135,-140,-145,135,135,84,Juniors,B,F,Single-ply
4,Aleksandra Zielinska,1992,POL,80.25,100,107.5,-112.5,107.5,107.5,84,Juniors,B,F,Single-ply
1,Maria Koteles,1992,HUN,133.1,155,160,165,165,165,84+,Juniors,B,F,Single-ply
2,Monika Lovas,1994,HUN,112.45,120,127.5,130,130,130,84+,Juniors,B,F,Single-ply
3,Magdalena Bialek,1991,POL,86.7,-115,117.5,122.5,122.5,122.5,84+,Juniors,B,F,Single-ply
4,Anastasia Moseeva,1994,RUS,111,110,115,-120,115,115,84+,Juniors,B,F,Single-ply
DQ,Elizabeth Perez,1990,USA,87.1,-115,-115,-115,,,84+,Juniors,B,F,Single-ply
