Division,WeightClassKg,Place,Name,Team,BodyweightKg,Best3SquatKg,Best3BenchKg,Best3DeadliftKg,TotalKg,Equipment,Event,Sex
Boys,52,1,John Magbanua,Texarkana Texas,51.53,127.01,65.77,142.88,335.66,Single-ply,SBD,M
Boys,52,2,Pablo Gutierrez,Mount Pleasant,51.71,120.2,72.57,133.81,326.59,Single-ply,SBD,M
Boys,52,3,Jeremiah Carino,Ladonia Fannindel,51.26,102.06,63.5,138.35,303.91,Single-ply,SBD,M
Boys,52,4,James Kessell,Simms Bowie,45.72,113.4,47.63,127.01,288.03,Single-ply,SBD,M
Boys,52,5,Bronson Dierkson,Texarkana Texas,49.17,86.18,40.82,95.25,222.26,Single-ply,SBD,M
Boys,52,DQ,Joseph Ibarra,Paris,51.71,102.06,,117.93,,Single-ply,SBD,M
Boys,56,1,Gage Wesley,Paris,52.62,122.47,65.77,117.93,306.17,Single-ply,SBD,M
Boys,56,2,Bryce Evans,Paris North Lamar,54.61,106.59,63.5,120.2,290.3,Single-ply,SBD,M
Boys,60,1,Travius Bronner,Paris,58.97,181.44,97.52,170.1,449.06,Single-ply,SBD,M
Boys,60,2,Josh Bolton,Paris North Lamar,58.33,158.76,99.79,172.37,430.91,Single-ply,SBD,M
Boys,60,3,Laravione Finley,Texarkana Texas,59.42,163.29,86.18,165.56,415.04,Single-ply,SBD,M
Boys,60,4,James Fisher,Texarkana Texas,56.97,154.22,83.91,147.42,385.55,Single-ply,SBD,M
Boys,60,5,Daniel Landaverde,Mount Pleasant,59.78,136.08,74.84,156.49,367.41,Single-ply,SBD,M
Boys,60,6,Taylor Dodd,Bogata Rivercrest,59.87,106.59,77.11,133.81,317.51,Single-ply,SBD,M
Boys,60,7,Cesar Leija,Bogata Rivercrest,57.7,111.13,70.31,129.27,310.71,Single-ply,SBD,M
Boys,60,8,Bryan Wilson,Paris,59.87,124.74,65.77,117.93,308.44,Single-ply,SBD,M
Boys,60,9,Datoryan Johnson,Ladonia Fannindel,59.87,92.99,65.77,133.81,292.57,Single-ply,SBD,M
Boys,60,10,Toby Chambers,Simms Bowie,57.33,102.06,45.36,129.27,276.69,Single-ply,SBD,M
Boys,67.5,1,Xzavius Gray,Paris,66.04,219.99,120.2,210.92,551.11,Single-ply,SBD,M
Boys,67.5,2,Elijah Robinson,Pattonville Prairiland,62.32,147.42,88.45,151.95,387.82,Single-ply,SBD,M
Boys,67.5,3,Dakota Vanderberg,Paris Chisum,65.23,142.88,95.25,147.42,385.55,Single-ply,SBD,M
Boys,67.5,4,Isaiah Peters,Paris Chisum,61.6,136.08,102.06,142.88,381.02,Single-ply,SBD,M
Boys,67.5,5,Jesse Thiessen,Paris Chisum,67.04,136.08,79.38,158.76,374.21,Single-ply,SBD,M
Boys,67.5,6,Lee Armstrong,Paris Chisum,64.68,129.27,77.11,149.69,356.07,Single-ply,SBD,M
Boys,67.5,7,Sam Collins,Paris Chisum,60.87,129.27,77.11,136.08,342.46,Single-ply,SBD,M
Boys,67.5,8,Colby Smith,Ladonia Fannindel,66.59,106.59,72.57,158.76,337.93,Single-ply,SBD,M
Boys,67.5,9,Aaron Roberts,Paris Chisum,60.87,124.74,61.23,131.54,317.51,Single-ply,SBD,M
Boys,67.5,10,Charles Akins,Simms Bowie,62.14,120.2,61.23,129.27,310.71,Single-ply,SBD,M
Boys,67.5,11,Carl Traylor,De Kalb,64.77,113.4,68.04,127.01,308.44,Single-ply,SBD,M
Boys,67.5,DQ,Dacorean Willis,Detroit,66.59,131.54,90.72,,,Single-ply,SBD,M
Boys,75,1,Joshua Martinez,Mount Pleasant,73.21,183.7,147.42,208.65,539.77,Single-ply,SBD,M
Boys,75,2,Tadarius Williams,Paris,73.94,201.85,111.13,183.7,496.68,Single-ply,SBD,M
Boys,75,3,Jakerian Brown,Paris,74.57,192.78,111.13,181.44,485.34,Single-ply,SBD,M
Boys,75,4,Jeremiah Guenther,Paris North Lamar,71.03,158.76,90.72,181.44,430.91,Single-ply,SBD,M
Boys,75,5,Dokata Grant,Simms Bowie,74.48,133.81,79.38,167.83,381.02,Single-ply,SBD,M
Boys,75,6,Greg Yarbrough,Paris,70.22,142.88,68.04,156.49,367.41,Single-ply,SBD,M
Boys,75,7,Brendan Morrow,Ladonia Fannindel,71.12,108.86,83.91,167.83,360.61,Single-ply,SBD,M
Boys,75,8,Hunter Jones,Paris North Lamar,71.58,136.08,72.57,142.88,351.53,Single-ply,SBD,M
Boys,75,9,Garrette McGee,Paris Chisum,73.66,124.74,95.25,129.27,349.27,Single-ply,SBD,M
Boys,75,10,Layne Miller,Ladonia Fannindel,72.76,99.79,79.38,140.61,319.78,Single-ply,SBD,M
Boys,75,DQ,Asheton Brown,Mount Pleasant,71.21,,,,,Single-ply,SBD,M
Boys,82.5,1,Eric Pheng,Paris North Lamar,77.02,190.51,113.4,201.85,505.76,Single-ply,SBD,M
Boys,82.5,2,Jeffery Sapp,Texarkana Texas,82.1,197.31,108.86,197.31,503.49,Single-ply,SBD,M
Boys,82.5,3,Morgan Landreth,Pattonville Prairiland,81.83,204.12,106.59,183.7,494.42,Single-ply,SBD,M
Boys,82.5,4,Jaxon Heveron,Paris North Lamar,79.74,185.97,120.2,179.17,485.34,Single-ply,SBD,M
Boys,82.5,5,Donavon Williams,Paris,77.2,197.31,90.72,195.04,483.08,Single-ply,SBD,M
Boys,82.5,6,Manny Urbina,De Kalb,81.47,181.44,113.4,185.97,480.81,Single-ply,SBD,M
Boys,82.5,7,Mason Chrisman,Paris North Lamar,77.02,172.37,102.06,195.04,469.47,Single-ply,SBD,M
Boys,82.5,8,Leramy Drew,Texarkana Texas,81.56,156.49,111.13,192.78,460.4,Single-ply,SBD,M
Boys,82.5,9,Damian Gwin,Mount Pleasant,80.83,165.56,108.86,183.7,458.13,Single-ply,SBD,M
Boys,82.5,10,JJ Jones,Hughes Springs,77.38,156.49,102.06,181.44,439.98,Single-ply,SBD,M
Boys,82.5,11,Roby Pridemore,Paris Chisum,79.11,161.03,113.4,161.03,435.45,Single-ply,SBD,M
Boys,82.5,12,Le'Darius Sneed,Texarkana Texas,78.47,174.63,95.25,158.76,428.64,Single-ply,SBD,M
Boys,82.5,13,Michael Cortez,Mount Pleasant,80.01,161.03,77.11,167.83,405.97,Single-ply,SBD,M
Boys,82.5,14,Kelsey Smith,Paris,80.83,140.61,92.99,172.37,405.97,Single-ply,SBD,M
Boys,82.5,15,Mason Plunk,Simms Bowie,76.38,149.69,90.72,151.95,392.36,Single-ply,SBD,M
Boys,82.5,16,Andrew Murphy #3,Paris Chisum,78.56,158.76,83.91,147.42,390.09,Single-ply,SBD,M
Boys,82.5,17,Kyle Carver,Ladonia Fannindel,78.74,72.57,70.31,115.67,258.55,Single-ply,SBD,M
Boys,90,1,Kobi Fort,Detroit,85.64,183.7,129.27,215.46,528.44,Single-ply,SBD,M
Boys,90,2,Jarvis Arnold,De Kalb,89.54,195.04,122.47,185.97,503.49,Single-ply,SBD,M
Boys,90,3,D'andre Purifoy,Texarkana Texas,84.28,170.1,106.59,183.7,460.4,Single-ply,SBD,M
Boys,90,4,Ryan Connor,De Kalb,85.46,179.17,104.33,170.1,453.59,Single-ply,SBD,M
Boys,90,5,Michael Godwin,Paris,85.91,161.03,97.52,147.42,405.97,Single-ply,SBD,M
Boys,90,6,Gunner Vest,Paris,89.72,147.42,90.72,167.83,405.97,Single-ply,SBD,M
Boys,90,7,Kyson Hogue,Paris,88,142.88,99.79,149.69,392.36,Single-ply,SBD,M
Boys,90,8,Caleb Wiley,Paris North Lamar,87.09,156.49,74.84,151.95,383.29,Single-ply,SBD,M
Boys,90,9,Keyon Braxton,Ladonia Fannindel,83.01,115.67,86.18,172.37,374.21,Single-ply,SBD,M
Boys,90,10,Carlos Martinez,Mount Pleasant,82.74,136.08,74.84,136.08,347,Single-ply,SBD,M
Boys,90,11,Reese Jesse,Bogata Rivercrest,86.27,108.86,68.04,131.54,308.44,Single-ply,SBD,M
Boys,90,DQ,Brandon Alverez,Bogata Rivercrest,85.91,195.04,124.74,,,Single-ply,SBD,M
Boys,100,1,Andrew Turner,Mount Pleasant,97.16,226.8,154.22,238.14,619.15,Single-ply,SBD,M
Boys,100,2,Da'shawn Harris,Texarkana Texas,99.43,226.8,129.27,208.65,564.72,Single-ply,SBD,M
Boys,100,3,Chris Arnold,Texarkana Texas,90.54,206.38,113.4,242.67,562.45,Single-ply,SBD,M
Boys,100,4,Jonathan Allen,Texarkana Texas,90.81,229.06,108.86,215.46,553.38,Single-ply,SBD,M
Boys,100,5,Quez Allen,Paris,96.8,208.65,115.67,226.8,551.11,Single-ply,SBD,M
Boys,100,6,Dejontae Harper,Texarkana Texas,92.26,217.72,111.13,206.38,535.24,Single-ply,SBD,M
Boys,100,7,Xzavier Hopkins,Texarkana Texas,93.8,197.31,113.4,185.97,496.68,Single-ply,SBD,M
Boys,100,8,Kentavius Williams,De Kalb,91.44,204.12,113.4,176.9,494.42,Single-ply,SBD,M
Boys,100,9,Zandarius Hearne,Paris,96.98,204.12,108.86,170.1,483.08,Single-ply,SBD,M
Boys,100,10,KJ Tyler,Paris,96.16,174.63,99.79,192.78,467.2,Single-ply,SBD,M
Boys,100,11,Parks Leonard,Texarkana Texas,92.9,183.7,102.06,167.83,453.59,Single-ply,SBD,M
Boys,100,12,David Kizer,De Kalb,91.99,174.63,83.91,176.9,435.45,Single-ply,SBD,M
Boys,100,13,Garrison Mckinney,De Kalb,98.88,172.37,104.33,142.88,419.57,Single-ply,SBD,M
Boys,100,14,Tanner Boggess,Ladonia Fannindel,92.53,129.27,92.99,190.51,412.77,Single-ply,SBD,M
Boys,100,15,Brandon Simpson,Bogata Rivercrest,90.54,124.74,88.45,163.29,376.48,Single-ply,SBD,M
Boys,100,16,Ian Stewart,Simms Bowie,95.44,149.69,70.31,149.69,369.68,Single-ply,SBD,M
Boys,100,DQ,Ethan Wickersham,Paris North Lamar,96.16,163.29,,,,Single-ply,SBD,M
Boys,110,1,Brandon Halliday,Paris North Lamar,105.41,226.8,142.88,226.8,596.47,Single-ply,SBD,M
Boys,110,2,Riley Russell,Bogata Rivercrest,105.96,215.46,140.61,188.24,544.31,Single-ply,SBD,M
Boys,110,3,Lawrence Lopez,De Kalb,103.33,174.63,117.93,208.65,501.22,Single-ply,SBD,M
Boys,110,4,Ty Watts,Simms Bowie,101.79,190.51,104.33,181.44,476.27,Single-ply,SBD,M
Boys,110,5,Joey Haley,Paris North Lamar,107.5,170.1,95.25,206.38,471.74,Single-ply,SBD,M
Boys,125,1,Dakota Helm,Paris,119.48,215.46,131.54,240.4,587.4,Single-ply,SBD,M
Boys,125,2,James Tarantino,Texarkana Texas,110.59,215.46,120.2,219.99,555.65,Single-ply,SBD,M
Boys,125,3,Colton Chamberlain,Paris North Lamar,116.39,188.24,124.74,167.83,480.81,Single-ply,SBD,M
Boys,125,4,Elian Bustos,Texarkana Texas,114.76,183.7,106.59,188.24,478.54,Single-ply,SBD,M
Boys,125,5,Brandon Meadows,Simms Bowie,120.29,176.9,115.67,181.44,474,Single-ply,SBD,M
Boys,125,6,Deonte Brown,De Kalb,117.3,181.44,113.4,170.1,464.93,Single-ply,SBD,M
Boys,125,7,Roland Echols,Texarkana Texas,113.76,147.42,102.06,206.38,455.86,Single-ply,SBD,M
Boys,125,8,Lucas Stepenson,Simms Bowie,122.02,170.1,97.52,183.7,451.32,Single-ply,SBD,M
Boys,125,9,Mason Shoalmire,Texarkana Texas,120.38,158.76,83.91,174.63,417.3,Single-ply,SBD,M
Boys,125,10,Riley Miner,Paris North Lamar,115.48,113.4,61.23,113.4,288.03,Single-ply,SBD,M
Boys,125+,1,AJ Garcia,Hughes Springs,159.57,333.39,174.63,226.8,734.82,Single-ply,SBD,M
Boys,125+,2,Noah Palmertree,Hughes Springs,126.19,240.4,147.42,224.53,612.35,Single-ply,SBD,M
Boys,125+,3,Dylan Raley,Texarkana Texas,139.62,226.8,142.88,242.67,612.35,Single-ply,SBD,M
Boys,125+,4,Byron Muse,Paris,126.01,238.14,154.22,213.19,605.55,Single-ply,SBD,M
Boys,125+,5,Eric Nard,Texarkana Texas,143.7,251.74,120.2,215.46,587.4,Single-ply,SBD,M
Boys,125+,6,Mitchell Cole,Paris,145.24,195.04,136.08,190.51,521.63,Single-ply,SBD,M
Boys,125+,7,Colton Tigert,Hughes Springs,127.19,183.7,127.01,181.44,492.15,Single-ply,SBD,M
