Place,Name,Division,Age,Sex,WeightClassKg,BodyweightKg,Country,Squat1Kg,Squat2Kg,Squat3Kg,Best3SquatKg,Squat4Kg,Bench1Kg,Bench2Kg,Bench3Kg,Best3BenchKg,Bench4Kg,Deadlift1Kg,Deadlift2Kg,Deadlift3Kg,Best3DeadliftKg,Deadlift4Kg,TotalKg,Equipment,Event
1,Yuliya Akimkina,Open,34,F,48,47.7,Russia,75,80,-82.5,80,,42.5,-45,-45,42.5,,-90,90,97.5,97.5,,220,Raw,SBD
2,Yana Shestakova,Open,32,F,48,47.2,Russia,70,-75,-75,70,,40,-45,-45,40,,65,72.5,-77.5,72.5,,182.5,Raw,SBD
DQ,Kristina Lytasova,Open,28,F,48,46.4,Russia,80,-82.5,82.5,82.5,,-50,-52.5,-52.5,,,,,,,,,Raw,SBD
1,Tatyana Kovaleva,Juniors 20-23,22,F,52,52,Russia,95,102.5,-107.5,102.5,,62.5,67.5,-70,67.5,,110,115,120,120,,290,Raw,SBD
2,Regina Kozhina,Juniors 20-23,21,F,52,51.4,Russia,90,95,-97.5,95,,57.5,-62.5,-62.5,57.5,,100,-107.5,107.5,107.5,,260,Raw,SBD
3,Viktoriya Barannikova,Juniors 20-23,20,F,52,51,Russia,70,-77.5,77.5,77.5,,37.5,-42.5,-42.5,37.5,,75,80,-85,80,,195,Raw,SBD
1,Olga Koltsova,Open,33,F,52,50.7,Russia,87.5,95,97.5,97.5,,-60,60,-67.5,60,,100,107.5,112.5,112.5,,270,Raw,SBD
2,Veronika Tyuleneva,Open,24,F,52,50.9,Russia,82.5,87.5,-92.5,87.5,,47.5,-55,55,55,,102.5,107.5,-110,107.5,,250,Raw,SBD
3,Tatyana Budkina,Open,37,F,52,48.5,Russia,-70,70,75,75,,37.5,42.5,-47.5,42.5,,90,100,-105,100,,217.5,Raw,SBD
1,Aleksandra Artemyeva,Juniors 20-23,21,F,60,57.5,Russia,95,-100,-100,95,,42.5,47.5,-50,47.5,,100,110,,110,,252.5,Raw,SBD
1,Svetlana Okhapkina,Open,39,F,60,58.6,Russia,130,135,137.5,137.5,,80,-82.5,-82.5,80,,180,185,-190,185,,402.5,Raw,SBD
2,Golala Aftab,Open,33,F,60,57.8,Finland,95,102.5,-110,102.5,,50,55,57.5,57.5,,110,125,-130,125,,285,Raw,SBD
1,Tatyana Obraztsova,Open,37,F,67.5,66.8,Russia,100,110,-115,110,,70,75,77.5,77.5,,120,130,140,140,,327.5,Raw,SBD
2,Viktiriya Yepikhina,Open,25,F,67.5,63.4,Russia,100,-110,110,110,,60,70,-75,70,,120,135,140,140,,320,Raw,SBD
DQ,Natalya Cherkasova,Masters 40-44,40,F,67.5,66.7,Russia,-110,-110,-110,,,,,,,,,,,,,,Raw,SBD
1,Yekaterina Kostina,Open,27,F,75,72.1,Russia,130,-140,145,145,,-80,80,-85,80,,160,167.5,,167.5,,392.5,Raw,SBD
2,Svetlana Kuzavkova,Open,36,F,75,68.8,Russia,100,-107.5,-110,100,,55,60,-62.5,60,,135,-140,,135,,295,Raw,SBD
1,Ci Gee,Open,28,F,60,58.7,Malaysia,115,125,-135,125,,85,-95,-95,85,,180,196,-205,196,,406,Raw,SBD
1,Anton Grafov,Teen 18-19,19,M,67.5,67.5,Russia,-190,190,200,200,,155,-165,-170,155,,210,220,230,230,,585,Raw,SBD
2,Aleksandr Dushkin,Teen 18-19,19,M,67.5,67,Russia,145,152.5,157.5,157.5,,100,-105,107.5,107.5,,155,160,165,165,,430,Raw,SBD
1,Dimitros Vouazanis,Juniors 20-23,22,M,67.5,66.8,Greece,-150,160,-170,160,,80,82.5,-85,82.5,,-160,170,-180,170,,412.5,Raw,SBD
1,Yevgeniy Karpov,Open,37,M,67.5,67.2,Russia,162.5,170,175,175,,122.5,127.5,-130,127.5,,170,-180,-180,170,,472.5,Raw,SBD
2,Pavel Lazureykis,Open,32,M,67.5,64.2,Russia,90,100,110,110,,80,90,-100,90,,110,120,-130,120,,320,Raw,SBD
1,Aleksey Polezhayev,Juniors 20-23,22,M,75,73.1,Russia,170,180,-185,180,,127.5,-132.5,132.5,132.5,,180,195,205,205,,517.5,Raw,SBD
2,Mikhail Kafash,Juniors 20-23,20,M,75,74.4,Russia,150,160,-167.5,160,,110,117.5,-122.5,117.5,,170,180,190,190,,467.5,Raw,SBD
3,Ivan Yarilin,Juniors 20-23,23,M,75,72.8,Russia,130,140,-150,140,,115,-122.5,-125,115,,165,-175,-175,165,,420,Raw,SBD
4,Sergey Mikhalkov,Juniors 20-23,21,M,75,73.7,Russia,135,145,155,155,,-90,90,-95,90,,140,152.5,-160,152.5,,397.5,Raw,SBD
1,Yevgeniy Shirokov,Open,28,M,75,72.9,Russia,130,145,150,150,,80,87.5,-90,87.5,,150,160,162.5,162.5,,400,Raw,SBD
2,Sergey Markevich,Open,34,M,75,72,Russia,110,120,130,130,,-90,95,-100,95,,140,150,160,160,,385,Raw,SBD
1,Dmitriy Karpeyev,Open,32,M,82.5,80.3,Russia,180,195,200,200,,130,140,-142.5,140,,215,232.5,237.5,237.5,,577.5,Raw,SBD
2,Ivan Fartuna,Open,25,M,82.5,81.1,Russia,175,185,-190,185,,122.5,127.5,132.5,132.5,,200,210,215,215,,532.5,Raw,SBD
3,Artem Martynyuk,Open,31,M,82.5,80,Russia,145,-155,155,155,,115,120,-125,120,,175,185,200,200,,475,Raw,SBD
4,Nikolay Salenkov,Open,27,M,82.5,82,Russia,150,-157.5,-157.5,150,,117.5,-122.5,-122.5,117.5,,180,-190,190,190,,457.5,Raw,SBD
1,Yevgeniy Pervyshin,Masters 40-44,43,M,82.5,82.4,Russia,155,165,175,175,,117.5,122.5,127.5,127.5,,220,230,242.5,242.5,,545,Raw,SBD
1,Anton Shuvayev,Teen 18-19,19,M,90,89.1,Russia,170,182.5,187.5,187.5,,115,125,-132.5,125,,220,232.5,242.5,242.5,-245,555,Raw,SBD
1,Andrey Pavlov,Juniors 20-23,22,M,90,86.2,Moldova,180,190,-200,190,,150,155,-157.5,155,,210,220,230,230,,575,Raw,SBD
DQ,Aleksandr Viktorov,Juniors 20-23,21,M,90,87.9,Russia,-150,-150,150,150,,-125,-125,-125,,,,,,,,,Raw,SBD
DQ,Georgiy Pilat,Juniors 20-23,23,M,90,89.3,Russia,-190,-195,,,,,,,,,,,,,,,Raw,SBD
1,Aleksey Sheykin,Open,28,M,90,89.5,Belarus,210,220,230,230,,160,-167.5,167.5,167.5,,250,265,275,275,,672.5,Raw,SBD
2,Andrey Prikhodko,Open,28,M,90,85.9,Russia,200,210,215,215,,155,165,167.5,167.5,,235,245,-252.5,245,,627.5,Raw,SBD
3,Aleksandr Levin,Open,24,M,90,84,Russia,182.5,192.5,-202.5,192.5,,127.5,-132.5,-132.5,127.5,,205,220,230,230,,550,Raw,SBD
4,Igor Kuznetsov,Open,34,M,90,88.8,Russia,-170,170,-175,170,,145,-150,-150,145,,210,-220,220,220,,535,Raw,SBD
5,Leonid Novikov,Open,33,M,90,87.5,Russia,160,170,175,175,,122.5,125,-127.5,125,,215,-222.5,-222.5,215,,515,Raw,SBD
DQ,Konstantinos Fitsios,Open,37,M,90,89.8,Greece,-210,-210,-210,,,,,,,,,,,,,,Raw,SBD
1,Arsen Akopyan,Masters 45-49,46,M,90,87.9,Russia,160,-172.5,-172.5,160,,120,127.5,-130,127.5,,180,190,200,200,,487.5,Raw,SBD
1,Feliks Tokarev,Teen 16-17,17,M,100,95.1,Russia,170,-190,-190,170,,140,-152.5,-152.5,140,,180,190,210,210,,520,Raw,SBD
1,Andrey Vostokov,Open,36,M,100,97.4,Russia,210,225,-235,225,,125,130,-135,130,,230,250,260,260,,615,Raw,SBD
DQ,Sergey Viktorov,Open,26,M,100,97,Russia,-195,-195,195,195,,-145,-145,-145,,,,,,,,,Raw,SBD
1,Ilya Nefedov,Masters 40-44,44,M,100,97.7,Russia,200,-220,220,220,,130,140,145,145,,230,240,250,250,,615,Raw,SBD
1,Andrey Makevnin,Masters 55-59,55,M,100,92.5,Russia,140,-150,160,160,,140,-162.5,-162.5,140,,160,180,205,205,,505,Raw,SBD
1,Anton Bukhman,Open,28,M,110,108.3,Russia,-250,250,260,260,,177.5,185,-190,185,,255,265,-285,265,,710,Raw,SBD
2,Shaban Saeid,Open,31,M,110,110,Iran,200,225,240,240,,170,185,-192.5,185,,230,-255,255,255,,680,Raw,SBD
3,Dmitriy Rogov,Open,37,M,110,101.7,Russia,170,185,192.5,192.5,,155,160,-162.5,160,,200,220,232.5,232.5,,585,Raw,SBD
1,Dmitriy Loginov,Open,27,M,125,118.2,Russia,245,-257.5,260,260,,155,162.5,170,170,,300,315,322.5,322.5,,752.5,Raw,SBD
1,Aleksey Ivanov,Masters 40-44,44,M,125,114.1,Russia,255,,,255,,155,160,162.5,162.5,,260,,,260,,677.5,Raw,SBD
1,Andrey Shishkin,Masters 50-54,54,M,125,111,Russia,195,220,230,230,,105,125,132.5,132.5,,205,245,265,265,-270,627.5,Raw,SBD
1,Natalya Konchakova,Open,39,F,52,50.9,Russia,117.5,125,130,130,,57.5,60,62.5,62.5,,140,147.5,-155,147.5,,340,Wraps,SBD
1,Irina Zazulyak,Juniors 20-23,23,F,56,53.9,Russia,100,110,-115,110,,45,-50,50,50,,105,110,115,115,,275,Wraps,SBD
1,Yana Petelova,Open,26,F,56,56,Russia,110,120,125,125,,40,47.5,50,50,,95,102.5,110,110,,285,Wraps,SBD
2,Ilina Postnova,Open,31,F,56,54.5,Russia,115,-125,-125,115,,50,-57.5,-57.5,50,,105,-112.5,112.5,112.5,,277.5,Wraps,SBD
1,Lyudmila Ryamayeva,Open,36,F,60,59.7,Russia,95,102.5,107.5,107.5,,-60,60,62.5,62.5,,135,140,-142.5,140,,310,Wraps,SBD
1,Oksana Veredina,Open,29,F,67.5,65.7,Russia,110,120,-130,120,,60,-65,65,65,,120,130,-140,130,,315,Wraps,SBD
2,Mariya Tyurbeneva,Open,35,F,67.5,62.1,Russia,77.5,90,95,95,,42.5,-52.5,-52.5,42.5,,80,95,105,105,,242.5,Wraps,SBD
1,Yekaterina Pogula,Masters 40-44,44,F,67.5,66.1,Russia,65,70,75,75,,35,37.5,-40,37.5,,70,77.5,-82.5,77.5,,190,Wraps,SBD
1,Yelena Yakovleva,Open,25,F,75,74.9,Russia,82.5,87.5,95,95,,52.5,55,-57.5,55,,120,-127.5,127.5,127.5,,277.5,Wraps,SBD
1,Vladimir Burnashov,Teen 13-15,14,M,56,56,Russia,150,155,160,160,-165,75,80,-82.5,80,,175,-177.5,-177.5,175,,415,Wraps,SBD
1,Danila Ganzha,Teen 13-15,15,M,60,58,Russia,122.5,127.5,-132.5,127.5,,60,65,67.5,67.5,,112.5,-117.5,117.5,117.5,,312.5,Wraps,SBD
1,Yegor Filatov,Juniors 20-23,23,M,67.5,65,Russia,122.5,132.5,-142.5,132.5,,72.5,77.5,-82.5,77.5,,-132.5,132.5,-147.5,132.5,,342.5,Wraps,SBD
1,Oleg Zelenyy,Open,31,M,67.5,64.5,Russia,200,-220,-220,200,,-115,120,-122.5,120,,-200,200,210,210,-220,530,Wraps,SBD
1,Vadim Chuvashayev,Teen 16-17,16,M,75,72.9,Russia,130,-137.5,-140,130,,-105,105,-107.5,105,,160,172.5,180,180,191,415,Wraps,SBD
1,Aleksandr Pisarev,Teen 18-19,18,M,75,74.3,Russia,200,215,225,225,,90,100,105,105,,200,217.5,230,230,240,560,Wraps,SBD
1,Vasileios Kotsis,Juniors 20-23,23,M,75,71.2,Greece,95,-102.5,102.5,102.5,,85,92.5,-95,92.5,,145,-155,-155,145,,340,Wraps,SBD
DQ,Yegor Slotyuk,Juniors 20-23,21,M,75,71.7,Russia,160,170,-180,170,,110,117.5,120,120,,-180,-200,-205,,,,Wraps,SBD
1,Aleksandr Pisarev,Open,18,M,75,74.3,Russia,200,215,225,225,,90,100,105,105,,200,217.5,230,230,240,560,Wraps,SBD
2,Dmitriy Lukin,Open,25,M,75,73.9,Russia,185,195,205,205,,115,120,125,125,,200,210,217.5,217.5,,547.5,Wraps,SBD
3,Exal Garcia Carrillo,Open,32,M,75,72.1,Chile,180,190,-205,190,,-135,140,-147.5,140,,190,-197.5,-197.5,190,,520,Wraps,SBD
1,Sejfo Šehović,Masters 55-59,57,M,75,72.7,Bosnia and Herzegovina,140,165,-175,165,,100,-105,,100,,200,220,230,230,,495,Wraps,SBD
1,Pavel Kapustkin,Open,30,M,82.5,81.6,Russia,-175,175,-195,175,,105,115,117.5,117.5,,190,205,-212.5,205,,497.5,Wraps,SBD
2,Ilya Rogachev,Open,33,M,82.5,79.7,Russia,142.5,155,160,160,,-107.5,107.5,115,115,,160,175,-182.5,175,,450,Wraps,SBD
3,Viktor Yashin,Open,27,M,82.5,76.5,Russia,157.5,165,172.5,172.5,,105,107.5,-112.5,107.5,,157.5,167.5,-175,167.5,,447.5,Wraps,SBD
1,Artak Kazaryan,Teen 16-17,16,M,90,84.4,Russia,200,-215,215,215,,115,-122.5,-122.5,115,,195,210,-217.5,210,,540,Wraps,SBD
1,Denis Goncharov,Juniors 20-23,20,M,90,89.8,Russia,235,245,252.5,252.5,,115,122.5,130,130,,-230,240,250,250,-252.5,632.5,Wraps,SBD
2,Gor Petrosyan,Juniors 20-23,22,M,90,88.6,Russia,190,-205,215,215,,145,152.5,155,155,,190,-220,220,220,,590,Wraps,SBD
3,Georgiy Pilat,Juniors 20-23,23,M,90,89.3,Russia,190,-200,200,200,,130,-140,142.5,142.5,,200,215,-220,215,,557.5,Wraps,SBD
1,Sergey Klyauzov,Open,26,M,90,89,Russia,-240,250,-265,250,,140,150,-155,150,,240,250,252.5,252.5,,652.5,Wraps,SBD
2,Dmitriy Sobtsov,Open,25,M,90,88.7,Russia,215,225,232.5,232.5,,160,170,172.5,172.5,,225,235,245,245,,650,Wraps,SBD
3,Panagiotis Karyotis,Open,32,M,90,87.8,Greece,-200,200,220,220,,175,-180,190,190,,200,-215,-215,200,,610,Wraps,SBD
4,Vyacheslav Khorkov,Open,37,M,90,89.7,Russia,215,-225,-225,215,,-140,-140,140,140,,220,230,240,240,,595,Wraps,SBD
5,Javad Keshavarz,Open,37,M,90,85,Iran,-200,-220,220,220,,-130,130,140,140,,200,220,-230,220,,580,Wraps,SBD
DQ,Zerpa Luis,Masters 50-54,50,M,90,87,Peru,-160,-160,,,,,,,,,,,,,,,Wraps,SBD
1,Anton Murzin,Teen 18-19,18,M,100,92.7,Russia,180,-190.5,-190.5,180,,130,145,-152.5,145,,210,230,,230,,555,Wraps,SBD
1,Dimitrios Rallis,Open,28,M,100,98.2,Greece,270,-280,-290,270,,160,-165,-165,160,,305,-315,315,315,,745,Wraps,SBD
2,Konstantinos Alexopoulos,Open,48,M,100,98.1,Greece,235,245,252.5,252.5,,192.5,-197.5,-197.5,192.5,,240,250,260,260,,705,Wraps,SBD
3,Roman Safronov,Open,27,M,100,96.5,Russia,180,200,-215,200,,122.5,130,-135,130,,195,210,222.5,222.5,,552.5,Wraps,SBD
4,Leonid Bormalev,Open,26,M,100,96.6,Russia,180,200,-215,200,,120,130,135,135,,190,205,217.5,217.5,,552.5,Wraps,SBD
5,Maksim Maslennikov,Open,28,M,100,94.3,Russia,200,-215,-215,200,,130,140,145,145,,190,202.5,-210,202.5,,547.5,Wraps,SBD
1,Konstantinos Alexopoulos,Masters 45-49,48,M,100,98.1,Greece,235,245,252.5,252.5,,192.5,-197.5,-197.5,192.5,,240,250,260,260,,705,Wraps,SBD
1,Hrvoje Marinovic,Juniors 20-23,20,M,110,106.5,Croatia,250,261,266,266,,140,145,-150,145,,-255,255,276,276,280,687,Wraps,SBD
1,Dmitriy Nenartovich,Open,28,M,110,108,Russia,235,247.5,-257.5,247.5,,180,190,-195,190,,250,257.5,265,265,,702.5,Wraps,SBD
2,Gevorg Petrosyan,Open,24,M,110,106.7,Russia,260,-270,-270,260,,175,-182.5,-185,175,,240,250,-270,250,,685,Wraps,SBD
3,Andrey Troshin,Open,32,M,110,106.8,Russia,200,-215,-215,200,,150,-157.5,-157.5,150,,220,222.5,-225,222.5,,572.5,Wraps,SBD
4,Mikhail Kulakov,Open,30,M,110,105.2,Russia,120,127.5,-132.5,127.5,,70,-75,-75,70,,135,145,152.5,152.5,,350,Wraps,SBD
DQ,Ulises Aldo,Masters 50-54,50,M,110,105.3,Peru,-165,-165,,,,,,,,,,,,,,,Wraps,SBD
1,Igor Zaychuk,Open,27,M,125,110.9,Ukraine,245,255,262.5,262.5,,185,192.5,-195,192.5,,290,300,-305,300,,755,Wraps,SBD
2,Levon Trdatyan,Open,36,M,125,118.5,Russia,260,-270,280,280,,160,-170,-170,160,,250,-260,-265,250,,690,Wraps,SBD
3,Konstantinos Tromaras,Open,27,M,125,114,Greece,180,200,220,220,,187.5,195,200,200,,220,245,-257.5,245,,665,Wraps,SBD
1,Dmitriy Dluzhnevskiy,Open,33,M,140,128.3,Russia,260,280,-300,280,,150,165,-175,165,,250,260,-270,260,,705,Wraps,SBD
1,Emmanouil Marizas,Open,26,M,140+,142.8,Greece,245,,,245,,120,-130,-130,120,,255,272.5,-275,272.5,,637.5,Wraps,SBD
1,Alena Popova,Open,30,F,52,50.1,Russia,,,,,,52.5,-55,-55,52.5,,-130,135,-140,135,,187.5,Raw,BD
1,Olga Morozova,Open,40,F,56,54.8,Russia,,,,,,40,42.5,-45,42.5,,100,110,-115,110,,152.5,Raw,BD
1,Olga Morozova,Masters 40-44,40,F,56,54.8,Russia,,,,,,40,42.5,-45,42.5,,100,110,-115,110,,152.5,Raw,BD
1,Irina Isayeva,Teen 16-17,16,F,60,58.7,Russia,,,,,,50,55,-60,55,,90,95,100,100,,155,Raw,BD
1,Viktoriya Markina,Teen 18-19,18,F,60,58.5,Russia,,,,,,-45,45,-47.5,45,,-100,100,-105,100,,145,Raw,BD
1,Yekaterina Dudareva,Open,23,F,60,59.2,Russia,,,,,,75,80,-82.5,80,,117.5,125,130,130,,210,Raw,BD
1,Irina Isayeva,Open,16,F,60,58.7,Russia,,,,,,50,55,-60,55,,90,95,100,100,,155,Raw,BD
1,Irina Kaznakova,Open,28,F,67.5,64,Russia,,,,,,62.5,67.5,70,70,,-125,125,132.5,132.5,,202.5,Raw,BD
1,Nikolay Obukhov,Masters 60-64,63,M,67.5,67.35,Russia,,,,,,100,105,-107.5,105,,160,170,180,180,,285,Raw,BD
1,Nikita Mizonov,Teen 16-17,17,M,75,73,Russia,,,,,,90,-92.5,92.5,92.5,,150,160,-170,160,,252.5,Raw,BD
1,Vasileios Kotsis,Juniors 20-23,23,M,75,71.2,Greece,,,,,,85,92.5,-95,92.5,,145,-155,-155,145,,237.5,Raw,BD
1,Sejfo Šehović,Masters 55-59,57,M,75,72.7,Bosnia and Herzegovina,,,,,,100,-105,,100,,200,220,230,230,,330,Raw,BD
1,Aleksandr Churzin,Juniors 20-23,21,M,82.5,82.1,Russia,,,,,,110,120,-125,120,,200,210,-215,210,,330,Raw,BD
1,Yevgeniy Pervyshin,Open,43,M,82.5,82.4,Russia,,,,,,117.5,122.5,127.5,127.5,,220,230,242.5,242.5,,370,Raw,BD
1,Maksim Matveyev,Open,35,M,90,86.7,Russia,,,,,,-190,190,-200,190,,270,290,-300,290,,480,Raw,BD
2,Aleksey Sheykin,Open,28,M,90,89.5,Belarus,,,,,,160,-167.5,167.5,167.5,,250,265,275,275,,442.5,Raw,BD
3,Danil Ilyasov,Open,24,M,90,85.1,Russia,,,,,,110,115,120,120,,150,165,-175,165,,285,Raw,BD
1,Dimitrios Rallis,Open,28,M,100,99.2,Greece,,,,,,160,-165,-165,160,,305,-315,315,315,,475,Raw,BD
2,Aleksey Smirnov,Open,39,M,100,98,Russia,,,,,,145,150,-155,150,,245,255,265,265,,415,Raw,BD
1,Mikko Maentymaeki,Masters 45-49,45,M,100,99.4,Finland,,,,,,145,150,-155,150,,-240,240,250,250,255,400,Raw,BD
1,Dmitriy Rogov,Open,37,M,110,101.7,Russia,,,,,,155,160,-162.5,160,,200,220,232.5,232.5,,392.5,Raw,BD
2,Mikhail Kulakov,Open,30,M,110,105.2,Russia,,,,,,70,-75,-75,70,,135,145,152.5,152.5,,222.5,Raw,BD
1,Denis Plenkin,Masters 40-44,42,M,110,101.5,Russia,,,,,,140,150,-160,150,,220,240,250,250,,400,Raw,BD
1,Andrey Shishkin,Masters 50-54,54,M,125,111,Russia,,,,,,105,125,132.5,132.5,,205,245,265,265,-270,397.5,Raw,BD
1,Emmanouil Marizas,Open,26,M,140+,142.8,Greece,,,,,,120,-130,-130,120,,255,272.5,-275,272.5,,392.5,Raw,BD
1,Vesta Leonova,Open,25,F,48,47.1,Russia,57.5,62.5,67.5,67.5,-70,,,,,,,,,,,67.5,Raw,S
1,Denis Fedorinov,Masters 40-44,42,M,82.5,79.7,Russia,155,160,-162.5,160,,,,,,,,,,,,160,Raw,S
1,Andrey Vostokov,Open,36,M,100,97.4,Russia,210,225,-235,225,,,,,,,,,,,,225,Raw,S
1,Shaban Saeid,Open,31,M,110,110,Iran,200,225,240,240,,,,,,,,,,,,240,Raw,S
1,Andrey Shishkin,Masters 50-54,54,M,125,111,Russia,195,220,230,230,,,,,,,,,,,,230,Raw,S
1,Maksim Popov,Open,32,M,67.5,66.4,Russia,180,190,-200,190,,,,,,,,,,,,190,Wraps,S
1,Vasileios Kotsis,Juniors 20-23,23,M,75,71.2,Greece,95,-102.5,102.5,102.5,,,,,,,,,,,,102.5,Wraps,S
1,Nejad Rostami,Open,30,M,82.5,81.7,Iran,260,-270,-270,260,,,,,,,,,,,,260,Wraps,S
2,Grigoriy Yudin,Open,31,M,82.5,80.1,Russia,230,242.5,250,250,,,,,,,,,,,,250,Wraps,S
1,Ivan Kiselev,Masters 55-59,55,M,82.5,80.3,Russia,150,-160,,150,,,,,,,,,,,,150,Wraps,S
1,Panagiotis Karyotis,Open,32,M,90,87.8,Greece,-200,200,220,220,,,,,,,,,,,,220,Wraps,S
1,Dimitrios Rallis,Open,28,M,100,98.2,Greece,270,-280,-290,270,,,,,,,,,,,,270,Wraps,S
2,Konstantinos Alexopoulos,Open,48,M,100,98.1,Greece,235,245,252.5,252.5,,,,,,,,,,,,252.5,Wraps,S
3,Aleksandr Gredyagin,Open,42,M,100,97.9,Russia,165,-185,190,190,,,,,,,,,,,,190,Wraps,S
1,Aleksandr Gredyagin,Masters 40-44,42,M,100,97.9,Russia,165,-185,190,190,,,,,,,,,,,,190,Wraps,S
1,Konstantinos Alexopoulos,Masters 45-49,48,M,100,98.1,Greece,235,245,252.5,252.5,,,,,,,,,,,,252.5,Wraps,S
1,Tariyel Rurua,Open,37,M,110,101.9,Russia,-200,200,-210,200,,,,,,,,,,,,200,Wraps,S
DQ,Aleksey Shaposhnikov,Open,26,M,110,106.6,Russia,-220,-220,,,,,,,,,,,,,,,Wraps,S
1,Konstantinos Tromaras,Open,27,M,125,114,Greece,180,200,220,220,,,,,,,,,,,,220,Wraps,S
1,Emmanouil Marizas,Open,26,M,140+,142.8,Greece,245,,,245,,,,,,,,,,,,245,Wraps,S
1,Yelizaveta Voronova,Teen 13-15,11,F,44,42.2,Russia,,,,,,50,55,-62.5,55,,,,,,,55,Raw,B
DQ,Viktoriya Grigoryeva,Juniors 20-23,21,F,44,43.5,Russia,,,,,,-37.5,,,,,,,,,,,Raw,B
1,Kristina Starikova,Open,25,F,44,43.7,Russia,,,,,,-52.5,-52.5,52.5,52.5,,,,,,,52.5,Raw,B
1,Yelizaveta Martynova,Teen 13-15,15,F,48,46,Russia,,,,,,52.5,-55,-55,52.5,,,,,,,52.5,Raw,B
1,Kristina Lytasova,Open,28,F,48,46.4,Russia,,,,,,47.5,50,-52.5,50,,,,,,,50,Raw,B
1,Alla Pavlichenko,Masters 40-44,42,F,48,47,Russia,,,,,,-55,-55,55,55,,,,,,,55,Raw,B
1,Tatyana Kovaleva,Juniors 20-23,22,F,52,52,Russia,,,,,,67.5,,,67.5,,,,,,,67.5,Raw,B
2,Oksana Dovzhenko,Juniors 20-23,20,F,52,50.7,Russia,,,,,,-57.5,57.5,60,60,,,,,,,60,Raw,B
3,Regina Kozhina,Juniors 20-23,21,F,52,52,Russia,,,,,,57.5,-62.5,-62.5,57.5,,,,,,,57.5,Raw,B
1,Anna Goleneva,Open,26,F,52,51.7,Russia,,,,,,67.5,70,72.5,72.5,,,,,,,72.5,Raw,B
2,Tatyana Pavlova,Open,27,F,52,50,Russia,,,,,,45,-50,50,50,,,,,,,50,Raw,B
3,Yelena Yegorova,Open,42,F,52,50.6,Russia,,,,,,42.5,47.5,-50,47.5,,,,,,,47.5,Raw,B
4,Yelena Subbotina,Open,32,F,52,51.8,Russia,,,,,,-42.5,42.5,-45,42.5,,,,,,,42.5,Raw,B
5,Ella Unashkhotleva,Open,33,F,52,51.1,Russia,,,,,,40,-42.5,-42.5,40,,,,,,,40,Raw,B
1,Yelena Yegorova,Masters 40-44,42,F,52,50.6,Russia,,,,,,42.5,47.5,-50,47.5,,,,,,,47.5,Raw,B
1,Mariya Burtseva,Teen 13-15,13,F,56,55.6,Russia,,,,,,55,57.5,60,60,,,,,,,60,Raw,B
1,Aleksandra Vedeneyeva,Open,31,F,56,53.9,Russia,,,,,,55,-62.5,-62.5,55,,,,,,,55,Raw,B
2,Lyubov Yefimtseva,Open,36,F,56,55,Russia,,,,,,47.5,52.5,55,55,,,,,,,55,Raw,B
3,Kseniya Pekhtereva,Open,33,F,56,54.8,Russia,,,,,,45,47.5,52.5,52.5,,,,,,,52.5,Raw,B
1,Vladislava Dluzhnevskaya,Teen 16-17,16,F,60,59.8,Russia,,,,,,102.5,107.5,109,109,-111,,,,,,109,Raw,B
1,Yekaterina Dudareva,Juniors 20-23,23,F,60,59.2,Russia,,,,,,75,80,-82.5,80,,,,,,,80,Raw,B
1,Vladislava Dluzhnevskaya,Open,16,F,60,59.8,Russia,,,,,,102.5,107.5,109,109,-111,,,,,,109,Raw,B
2,Yekaterina Puzyreva,Open,25,F,60,58.2,Russia,,,,,,67.5,-70,70,70,,,,,,,70,Raw,B
3,Tatyana Yaremaka,Open,33,F,60,56.2,Russia,,,,,,62.5,67.5,-72.5,67.5,,,,,,,67.5,Raw,B
4,Kristina Lyashenko,Open,24,F,60,56.9,Russia,,,,,,65,-67.5,-67.5,65,,,,,,,65,Raw,B
1,Svetlana Ivanova,Masters 40-44,41,F,60,58.9,Russia,,,,,,-67.5,67.5,72.5,72.5,,,,,,,72.5,Raw,B
1,Natalya Knyazeva,Masters 45-49,46,F,60,57.2,Russia,,,,,,47.5,-52.5,-52.5,47.5,,,,,,,47.5,Raw,B
1,Anna Travkina,Teen 16-17,16,F,67.5,64.5,Russia,,,,,,50,52.5,55,55,,,,,,,55,Raw,B
1,Anastasiya Zakhovayeva,Juniors 20-23,21,F,67.5,61.7,Russia,,,,,,72.5,75,77.5,77.5,,,,,,,77.5,Raw,B
2,Kseniya Davydova,Juniors 20-23,21,F,67.5,61.1,Russia,,,,,,52.5,55,-57.5,55,,,,,,,55,Raw,B
1,Yuliya Kuznetsova,Open,43,F,67.5,63.2,Russia,,,,,,100,-105,-105,100,,,,,,,100,Raw,B
2,Olga Zhilina,Open,35,F,67.5,66.1,Russia,,,,,,87.5,-92.5,-92.5,87.5,,,,,,,87.5,Raw,B
3,Anastasiya Zakhovayeva,Open,21,F,67.5,61.7,Russia,,,,,,72.5,75,77.5,77.5,,,,,,,77.5,Raw,B
4,Anastasiya Yurchenko,Open,28,F,67.5,66.9,Russia,,,,,,-70,75,-77.5,75,,,,,,,75,Raw,B
5,Anna Pukhova,Open,27,F,67.5,64.3,Russia,,,,,,67.5,-72.5,72.5,72.5,,,,,,,72.5,Raw,B
6,Natalya Sergeyeva,Open,31,F,67.5,66.7,Russia,,,,,,60,-65,-65,60,,,,,,,60,Raw,B
7,Tatyana Farrafutdinova,Open,33,F,67.5,66.5,Russia,,,,,,42.5,45,47.5,47.5,,,,,,,47.5,Raw,B
1,Svetlana Poletaeva,Open,39,F,100+,105.5,Russia,,,,,,70,75,-81,75,,,,,,,75,Raw,B
1,Daniil Belykh,Teen 13-15,9,M,52,31,Russia,,,,,,35,-37.5,-37.5,35,,,,,,,35,Raw,B
1,Aleksey Dulin,Open,30,M,52,50.9,Russia,,,,,,-80,80,82.5,82.5,,,,,,,82.5,Raw,B
1,Andrey Balandin,Teen 16-17,17,M,56,54.5,Russia,,,,,,92.5,102.5,-107.5,102.5,,,,,,,102.5,Raw,B
2,Maksim Nedilko,Teen 16-17,16,M,56,52.5,Russia,,,,,,55,62.5,-65,62.5,,,,,,,62.5,Raw,B
1,Valentin Bukhantsev,Teen 18-19,18,M,56,55.6,Russia,,,,,,80,-85,-85,80,,,,,,,80,Raw,B
1,Viktor Shabin,Teen 16-17,16,M,60,58.5,Russia,,,,,,87.5,92.5,-95,92.5,,,,,,,92.5,Raw,B
1,Mariya Suzdaltseva,Juniors 20-23,23,F,60,58.4,Russia,,,,,,62.5,67.5,-77.5,67.5,,,,,,,67.5,Raw,B
1,Dmitriy Surkov,Open,27,M,60,59.5,Russia,,,,,,95,100,-102.5,100,,,,,,,100,Raw,B
1,Nikita Tomilov,Teen 16-17,17,M,67.5,64.3,Russia,,,,,,85,90,92.5,92.5,,,,,,,92.5,Raw,B
1,Aleksandr Zolotarev,Teen 18-19,19,M,67.5,66.2,Russia,,,,,,100,107.5,110,110,,,,,,,110,Raw,B
1,Nikolay Obukhov,Masters 60-64,63,M,67.5,67.4,Russia,,,,,,100,105,-107.5,105,,,,,,,105,Raw,B
1,Dmitriy Chernyayev,Teen 16-17,17,M,75,70.1,Russia,,,,,,90,-95,-95,90,,,,,,,90,Raw,B
1,Nikolay Sergeyev,Teen 18-19,19,M,75,73.5,Russia,,,,,,-107.5,-110,110,110,,,,,,,110,Raw,B
1,Nazar Solyan,Juniors 20-23,23,M,75,74.8,Ukraine,,,,,,165,-170,-170,165,,,,,,,165,Raw,B
2,Sergey Chugurov,Juniors 20-23,23,M,75,74,Russia,,,,,,150,157.5,-165,157.5,,,,,,,157.5,Raw,B
3,Yegor Kuzichev,Juniors 20-23,21,M,75,72.5,Russia,,,,,,117.5,-120,-120,117.5,,,,,,,117.5,Raw,B
4,Vasileios Kotsis,Juniors 20-23,23,M,75,71.2,Greece,,,,,,85,92.5,-95,92.5,,,,,,,92.5,Raw,B
1,Maksim Bogdanov,Open,24,M,75,72.2,Russia,,,,,,-175,175,185,185,,,,,,,185,Raw,B
2,Denis Sokov,Open,31,M,75,74.9,Russia,,,,,,165,170,-172.5,170,,,,,,,170,Raw,B
3,Aleksandr Rassokhin,Open,31,M,75,74,Russia,,,,,,160,165,-167.5,165,,,,,,,165,Raw,B
4,Nazar Solyan,Open,23,M,75,74.8,Ukraine,,,,,,165,-170,-170,165,,,,,,,165,Raw,B
5,Pavel Grisheyev,Open,34,M,75,73.6,Russia,,,,,,150,160,-165,160,,,,,,,160,Raw,B
6,Grigoriy Semenov,Open,24,M,75,74.2,Russia,,,,,,140,145,150,150,,,,,,,150,Raw,B
7,Exal Garcia Carrillo,Open,32,M,75,72.1,Chile,,,,,,140,145,-150,145,,,,,,,145,Raw,B
8,Artur Minasyan,Open,28,M,75,73.7,Russia,,,,,,140,145,-150,145,,,,,,,145,Raw,B
9,Yevgeniy Shevchuk,Open,24,M,75,73.2,Russia,,,,,,-115,125,-135,125,,,,,,,125,Raw,B
1,Nikolay Lysenkov,Masters 40-44,43,M,75,71.8,Russia,,,,,,97.5,100,-105,100,,,,,,,100,Raw,B
1,Sergey Sidorovskiy,Masters 45-49,45,M,75,73.6,Russia,,,,,,127.5,-135,-135,127.5,,,,,,,127.5,Raw,B
1,Georgiy Dubrovin,Teen 18-19,19,M,82.5,78.5,Russia,,,,,,140,150,155,155,157.5,,,,,,155,Raw,B
2,Bogdan Zukhayriyev,Teen 18-19,18,M,82.5,81.4,Russia,,,,,,135,145,-155,145,,,,,,,145,Raw,B
1,Alesandr Zaytsev,Juniors 20-23,20,M,82.5,80.4,Russia,,,,,,-140,145,-150,145,,,,,,,145,Raw,B
1,Nejad Rostami,Open,30,M,82.5,81.7,Iran,,,,,,195,202.5,207.5,207.5,,,,,,,207.5,Raw,B
2,Yevgeniy Voloskiy,Open,29,M,82.5,82.1,Russia,,,,,,180,195,200,200,,,,,,,200,Raw,B
3,Dmitriy Nechayev,Open,33,M,82.5,81.5,Russia,,,,,,-145,150,155,155,,,,,,,155,Raw,B
4,Artem Kobyakov,Open,33,M,82.5,79,Russia,,,,,,137.5,145,-152.5,145,,,,,,,145,Raw,B
5,Aleksey Zavertkin,Open,33,M,82.5,81.6,Russia,,,,,,-145,145,-150,145,,,,,,,145,Raw,B
6,Andrey Skoryatin,Open,24,M,82.5,79.6,Russia,,,,,,135,-140,-140,135,,,,,,,135,Raw,B
7,Yevgeniy Dobrosotskiy,Open,31,M,82.5,81.8,Russia,,,,,,135,-140,,135,,,,,,,135,Raw,B
8,Sergey Silionov,Open,51,M,82.5,81.6,Russia,,,,,,130,-137.5,,130,,,,,,,130,Raw,B
9,Yaroslav Gorkovenko,Open,32,M,82.5,81.7,Russia,,,,,,120,127.5,-130,127.5,,,,,,,127.5,Raw,B
10,Vyacheslav Bovinov,Open,36,M,82.5,81.9,Russia,,,,,,125,-130,-130,125,,,,,,,125,Raw,B
11,Ilya Rogachev,Open,33,M,82.5,79.7,Russia,,,,,,-107.5,107.5,115,115,,,,,,,115,Raw,B
DQ,Akhmed Mereshkov,Open,27,M,82.5,80.6,Russia,,,,,,-192.5,-192.5,-192.5,,,,,,,,,Raw,B
1,Viktor Fadeyev,Masters 40-44,41,M,82.5,81.7,Russia,,,,,,120,-127.5,127.5,127.5,,,,,,,127.5,Raw,B
1,Mikhail Tokman,Masters 45-49,45,M,82.5,80.5,Russia,,,,,,-152.5,157.5,-160,157.5,,,,,,,157.5,Raw,B
1,Sergey Silionov,Masters 50-54,51,M,82.5,81.6,Russia,,,,,,130,-137.5,,130,,,,,,,130,Raw,B
1,Vyacheslav Troshinskiy,Masters 55-59,56,M,82.5,81.7,Russia,,,,,,125,135,140,140,,,,,,,140,Raw,B
2,Igor Kovalev,Masters 55-59,59,M,82.5,76.6,Russia,,,,,,132.5,137.5,-142.5,137.5,,,,,,,137.5,Raw,B
1,Ilya Yermakov,Teen 18-19,19,M,90,83.8,Russia,,,,,,155,165,175,175,,,,,,,175,Raw,B
2,Bogdan Lukyanov,Teen 18-19,18,M,90,87.5,Russia,,,,,,125,132.5,-135,132.5,,,,,,,132.5,Raw,B
1,Boris Ilin,Juniors 20-23,22,M,90,89.1,Russia,,,,,,150,-155,157.5,157.5,,,,,,,157.5,Raw,B
2,Andrey Pavlov,Juniors 20-23,22,M,90,86.2,Moldova,,,,,,150,155,-157.5,155,,,,,,,155,Raw,B
3,Mikhail Litovskiy,Juniors 20-23,23,M,90,89.7,Russia,,,,,,127.5,-132.5,-132.5,127.5,,,,,,,127.5,Raw,B
1,Vladimir Konchakov,Open,43,M,90,89.3,Russia,,,,,,175,185,192.5,192.5,,,,,,,192.5,Raw,B
2,Panagiotis Karyotis,Open,32,M,90,87.8,Greece,,,,,,190,,,190,,,,,,,190,Raw,B
3,Yevgeniy Makarenko,Open,36,M,90,89.6,Russia,,,,,,175,180,182.5,182.5,,,,,,,182.5,Raw,B
4,Ilya Yermakov,Open,19,M,90,83.8,Russia,,,,,,155,165,175,175,,,,,,,175,Raw,B
5,Pavel Belykh,Open,36,M,90,87.8,Russia,,,,,,175,-180,-180,175,,,,,,,175,Raw,B
6,Nikolay Semenov,Open,29,M,90,88.1,Kazakhstan,,,,,,165,175,-182.5,175,,,,,,,175,Raw,B
7,Yegor Opichenok,Open,35,M,90,88.2,Russia,,,,,,167.5,-175,175,175,,,,,,,175,Raw,B
8,Dmitriy Gorinov,Open,33,M,90,88.7,Russia,,,,,,-175,-175,175,175,,,,,,,175,Raw,B
9,Aleksey Sheykin,Open,28,M,90,89.5,Belarus,,,,,,167.5,,,167.5,,,,,,,167.5,Raw,B
10,Vasiliy Zharkov,Open,37,M,90,88.5,Russia,,,,,,152.5,-160,160,160,,,,,,,160,Raw,B
11,Sergey Nelayev,Open,34,M,90,89.9,Russia,,,,,,155,160,-165,160,,,,,,,160,Raw,B
12,Yuriy Gubanov,Open,29,M,90,88.4,Russia,,,,,,152.5,157.5,-162.5,157.5,,,,,,,157.5,Raw,B
13,Stanislav Novoselov,Open,29,M,90,88.4,Russia,,,,,,155,-165,,155,,,,,,,155,Raw,B
14,Farrukh Tokhtibakiyev,Open,28,M,90,89.8,Uzbekistan,,,,,,155,-165,-165,155,,,,,,,155,Raw,B
15,Sergey Zotov,Open,33,M,90,87.9,Russia,,,,,,145,152.5,-160,152.5,,,,,,,152.5,Raw,B
16,Konstantinos Fitsios,Open,37,M,90,89.8,Greece,,,,,,140,,,140,,,,,,,140,Raw,B
17,Timur Shamilov,Open,31,M,90,87.8,Russia,,,,,,135,-140,-140,135,,,,,,,135,Raw,B
18,Albert Zkriyev,Open,30,M,90,88.8,Russia,,,,,,120,-132.5,132.5,132.5,,,,,,,132.5,Raw,B
DQ,Maksim Fedoryuk,Open,32,M,90,87.1,Russia,,,,,,-160,-160,-160,,,,,,,,,Raw,B
DQ,Aleksey Kuznetsov,Open,28,M,90,87.8,Russia,,,,,,-132.5,-132.5,-132.5,,,,,,,,,Raw,B
DQ,Aleksandr Zharkov,Open,37,M,90,88.5,Russia,,,,,,-152.5,,,,,,,,,,,Raw,B
DQ,Kirill Sukharev,Open,22,M,90,89.6,Russia,,,,,,-215,,,,,,,,,,,Raw,B
1,Yevgeniy Makarenko,Sub Masters 33-39,36,M,90,89.6,Russia,,,,,,175,180,182.5,182.5,,,,,,,182.5,Raw,B
2,Sergey Nelayev,Sub Masters 33-39,34,M,90,89.9,Russia,,,,,,155,160,-165,160,,,,,,,160,Raw,B
1,Vladimir Konchakov,Masters 40-44,43,M,90,89.3,Russia,,,,,,175,185,192.5,192.5,,,,,,,192.5,Raw,B
2,Yuriy Yefremov,Masters 40-44,44,M,90,87.6,Russia,,,,,,-175,-180,180,180,,,,,,,180,Raw,B
3,Sergey Shamov,Masters 40-44,43,M,90,90,Russia,,,,,,155,160,162.5,162.5,,,,,,,162.5,Raw,B
DQ,Oleksandr Pogasiy,Masters 40-44,40,M,90,88.2,Ukraine,,,,,,-160,-160,-160,,,,,,,,,Raw,B
1,Aleksandr Tyulenev,Masters 45-49,48,M,90,89.1,Russia,,,,,,145,152.5,160,160,,,,,,,160,Raw,B
1,Aleksandr Petrov,Masters 55-59,56,M,90,89.8,Russia,,,,,,160,170,-172.5,170,,,,,,,170,Raw,B
2,Viktor Chantsev,Masters 55-59,59,M,90,88.1,Russia,,,,,,110,115,120,120,,,,,,,120,Raw,B
1,Anatoliy Pavlenko,Masters 65-69,65,M,90,89,Russia,,,,,,-107.5,107.5,112.5,112.5,,,,,,,112.5,Raw,B
1,Tommi Rannila,Juniors 20-23,23,M,100,94.9,Finland,,,,,,182.5,-190,190,190,,,,,,,190,Raw,B
2,Sergey Naumlyuk,Juniors 20-23,22,M,100,98.1,Russia,,,,,,175,185,-192.5,185,,,,,,,185,Raw,B
3,Andrey Brynza,Juniors 20-23,23,M,100,97.2,Russia,,,,,,-155,155,-162.5,155,,,,,,,155,Raw,B
4,Bogdan Khabayev,Juniors 20-23,22,M,100,97.6,Russia,,,,,,135,-140,140,140,,,,,,,140,Raw,B
1,Ilya Orlov,Open,34,M,100,97.9,Russia,,,,,,210,215,-217.5,215,,,,,,,215,Raw,B
2,Konstantinos Alexopoulos,Open,48,M,100,98.1,Greece,,,,,,192.5,,,192.5,,,,,,,192.5,Raw,B
3,Tommi Rannila,Open,23,M,100,94.9,Finland,,,,,,182.5,-190,190,190,,,,,,,190,Raw,B
4,Artur Cheremisin,Open,27,M,100,98.3,Russia,,,,,,177.5,185,-192.5,185,,,,,,,185,Raw,B
5,Maksim Volkov,Open,27,M,100,96.3,Russia,,,,,,175,-185,-185,175,,,,,,,175,Raw,B
6,Aleksey Stekolshchikov,Open,28,M,100,96.9,Kazakhstan,,,,,,175,-185,-190,175,,,,,,,175,Raw,B
7,Mikhail Rublev,Open,37,M,100,94.4,Russia,,,,,,152.5,160,167.5,167.5,,,,,,,167.5,Raw,B
8,Andrey Pirogov,Open,30,M,100,96.3,Russia,,,,,,140,150,162.5,162.5,,,,,,,162.5,Raw,B
9,Dimitrios Rallis,Open,28,M,100,99.2,Greece,,,,,,160,,,160,,,,,,,160,Raw,B
10,Mikko Maentymaeki,Open,45,M,100,99.4,Finland,,,,,,150,,,150,,,,,,,150,Raw,B
11,Aleksandr Borodulin,Open,30,M,100,98.3,Russia,,,,,,140,147.5,-152.5,147.5,,,,,,,147.5,Raw,B
12,Andrey Monakhov,Open,29,M,100,99.8,Russia,,,,,,145,-147.5,-147.5,145,,,,,,,145,Raw,B
13,Kirill Maksimov,Open,31,M,100,96.5,Russia,,,,,,-140,140,-150,140,,,,,,,140,Raw,B
DQ,Denis Komandrovskiy,Open,32,M,100,93,Russia,,,,,,-150,-150,-150,,,,,,,,,Raw,B
1,Reza Zamani,Sub Masters 33-39,39,M,100,98.6,Iran,,,,,,152.5,-160,160,160,,,,,,,160,Raw,B
1,Andrey Grigoryev,Masters 40-44,41,M,100,99.8,Russia,,,,,,185,-191,191,191,192,,,,,,191,Raw,B
2,Sergey Volkov,Masters 40-44,43,M,100,99.2,Russia,,,,,,140,145,-150,145,,,,,,,145,Raw,B
3,Sergey Ladchenko,Masters 40-44,43,M,100,94.5,Russia,,,,,,-140,-140,140,140,,,,,,,140,Raw,B
1,Konstantinos Alexopoulos,Masters 45-49,48,M,100,98.1,Greece,,,,,,192.5,,,192.5,,,,,,,192.5,Raw,B
2,Aleksey Kondakov,Masters 45-49,46,M,100,90.3,Russia,,,,,,150,155,-160,155,,,,,,,155,Raw,B
3,Igor Chernyshov,Masters 45-49,47,M,100,93.2,Russia,,,,,,145,152.5,-157.5,152.5,,,,,,,152.5,Raw,B
4,Mikko Maentymaeki,Masters 45-49,45,M,100,99.4,Finland,,,,,,150,,,150,,,,,,,150,Raw,B
1,Alim Marov,Masters 50-54,50,M,100,93.5,Kirgiziya,,,,,,155,-162.5,-162.5,155,,,,,,,155,Raw,B
2,Andrey Chelyshev,Masters 50-54,53,M,100,98.9,Russia,,,,,,-100,-100,100,100,,,,,,,100,Raw,B
1,Vasiliy Lyakhov,Masters 65-69,68,M,100,95,Russia,,,,,,117.5,122.5,-125,122.5,,,,,,,122.5,Raw,B
1,Mikhail Lyubarskiy,Teen 13-15,14,M,110,108.6,Russia,,,,,,110,120,125,125,,,,,,,125,Raw,B
1,Dmitriy Zheleznov,Juniors 20-23,23,M,110,108.7,Russia,,,,,,185,195,200,200,,,,,,,200,Raw,B
2,Andrey Kharchikov,Juniors 20-23,21,M,110,104,Russia,,,,,,147.5,-150,-150,147.5,,,,,,,147.5,Raw,B
1,Ibrahim Khamkhoev,Open,31,M,110,104.4,Russia,,,,,,235,242.5,245,245,-250,,,,,,245,Raw,B
2,Denis Malchikov,Open,36,M,110,107.1,Russia,,,,,,210,220,225,225,,,,,,,225,Raw,B
3,Semen Borkin,Open,35,M,110,106.2,Russia,,,,,,195,202.5,205,205,,,,,,,205,Raw,B
4,Nikolay Pilipishko,Open,32,M,110,106.1,Russia,,,,,,175,195,-200,195,,,,,,,195,Raw,B
5,Andrey Makarkin,Open,36,M,110,106.2,Russia,,,,,,187.5,195,-202.5,195,,,,,,,195,Raw,B
6,Dmitriy Nadrov,Open,27,M,110,102.5,Russia,,,,,,-167.5,167.5,175,175,,,,,,,175,Raw,B
7,Sergey Povstanyuk,Open,31,M,110,104.7,Russia,,,,,,160,167.5,172.5,172.5,,,,,,,172.5,Raw,B
8,Artem Yakovlev,Open,37,M,110,108.7,Russia,,,,,,147.5,-167.5,,147.5,,,,,,,147.5,Raw,B
1,Yevgeniy Veles,Masters 45-49,48,M,110,109.5,Russia,,,,,,175,185,-195,185,,,,,,,185,Raw,B
2,Pavel Bukhantsev,Masters 45-49,47,M,110,107,Russia,,,,,,167.5,-172.5,172.5,172.5,,,,,,,172.5,Raw,B
3,Valeriy Chernov,Masters 45-49,47,M,110,108.6,Russia,,,,,,167.5,170,-175,170,,,,,,,170,Raw,B
4,Andrey Lukyanov,Masters 45-49,47,M,110,105.6,Russia,,,,,,162.5,-170,,162.5,,,,,,,162.5,Raw,B
1,Igor Kurotchenko,Masters 50-54,54,M,110,109.7,Russia,,,,,,140,147.5,157.5,157.5,,,,,,,157.5,Raw,B
2,Vadim Tarasov,Masters 50-54,54,M,110,102.5,Russia,,,,,,150,152.5,155,155,,,,,,,155,Raw,B
1,Konstantinos Tromaras,Open,27,M,125,114.6,Greece,,,,,,200,,,200,,,,,,,200,Raw,B
2,Igor Zaychuk,Open,27,M,125,110.9,Ukraine,,,,,,192.5,,,192.5,,,,,,,192.5,Raw,B
3,Yevgeniy Avdulov,Open,33,M,125,114.8,Russia,,,,,,185,-192.5,192.5,192.5,,,,,,,192.5,Raw,B
4,Semen Potapov,Open,32,M,125,122.6,Russia,,,,,,177.5,-180,180,180,,,,,,,180,Raw,B
5,Oleg Zverev,Open,42,M,125,111.3,Russia,,,,,,160,170,-177.5,170,,,,,,,170,Raw,B
6,Aleksandr Yefimov,Open,37,M,125,120.3,Russia,,,,,,155,165,-175,165,,,,,,,165,Raw,B
7,Anton Levin,Open,28,M,125,111.8,Russia,,,,,,152.5,160,-162.5,160,,,,,,,160,Raw,B
1,Yevgeniy Avdulov,Sub Masters 33-39,33,M,125,114.8,Russia,,,,,,185,-192.5,192.5,192.5,,,,,,,192.5,Raw,B
2,Hesam Rahimi,Sub Masters 33-39,34,M,125,121.9,Iran,,,,,,-150,155,-165,155,,,,,,,155,Raw,B
1,Oleg Zverev,Masters 40-44,42,M,125,111.3,Russia,,,,,,160,170,-177.5,170,,,,,,,170,Raw,B
1,Anatoliy Logunov,Masters 60-64,63,M,125,110.5,Russia,,,,,,150,157.5,-162.5,157.5,,,,,,,157.5,Raw,B
1,Danial Zamani,Open,25,M,140,136,Iran,,,,,,200,210,215,215,,,,,,,215,Raw,B
2,Karen Avetisyan,Open,27,M,140,126.4,Russia,,,,,,200,-210,-210,200,,,,,,,200,Raw,B
1,Konstantin Bogdanov,Masters 40-44,40,M,140,134.3,Russia,,,,,,180,190,-195,190,,,,,,,190,Raw,B
1,Vladimir Popov,Masters 60-64,60,M,140,126.1,Russia,,,,,,165,-170,-170,165,,,,,,,165,Raw,B
1,Gurler Gurhan,Open,33,M,140+,159,Iran,,,,,,165,177.5,187.5,187.5,,,,,,,187.5,Raw,B
2,Emmanouil Marizas,Open,26,M,140+,142.8,Greece,,,,,,120,,,120,,,,,,,120,Raw,B
1,Sergey Lazarev,Masters 55-59,56,M,140+,149,Russia,,,,,,140,,,140,,,,,,,140,Raw,B
DQ,Viktoriya Grigoryeva,Juniors 20-23,21,F,44,43.5,Russia,,,,,,,,,,,-72.5,-72.5,,,,,Raw,D
1,Darya Zavyazkina,Juniors 20-23,22,F,52,51.3,Russia,,,,,,,,,,,-55,55,60,60,,60,Raw,D
1,Tatyana Budkina,Open,37,F,52,48.5,Russia,,,,,,,,,,,90,100,-105,100,,100,Raw,D
1,Galina Netrebina,Open,38,F,56,55.3,Russia,,,,,,,,,,,115,120,-125,120,,120,Raw,D
2,Yevgeniya Solovyeva,Open,34,F,56,53.5,Russia,,,,,,,,,,,-100,100,110,110,,110,Raw,D
1,Tatyana Tikhonova,Teen 18-19,19,F,60,59.4,Russia,,,,,,,,,,,115,-120,120,120,,120,Raw,D
1,Olesya Shishkina,Juniors 20-23,22,F,60,59.5,Russia,,,,,,,,,,,145,150,155,155,,155,Raw,D
1,Svetlana Okhapkina,Open,39,F,60,58.6,Russia,,,,,,,,,,,180,185,-190,185,,185,Raw,D
2,Olesya Shishkina,Open,22,F,60,59.5,Russia,,,,,,,,,,,145,150,155,155,,155,Raw,D
1,Yelena Yemeleva,Masters 40-44,40,F,60,59.2,Russia,,,,,,,,,,,120,127.5,132.5,132.5,,132.5,Raw,D
1,Anna Stepanova,Masters 55-59,59,F,60,59,Russia,,,,,,,,,,,90,95,100,100,,100,Raw,D
1,Aleksandra Povolotskaya,Juniors 20-23,23,F,67.5,62.4,Russia,,,,,,,,,,,125,130,135,135,,135,Raw,D
1,Aleksandra Povolotskaya,Open,23,F,67.5,62.4,Russia,,,,,,,,,,,125,130,135,135,,135,Raw,D
2,Anna Skornyakova,Open,25,F,67.5,67.3,Russia,,,,,,,,,,,115,122.5,-130,122.5,,122.5,Raw,D
3,Yelena Prokhina,Open,33,F,67.5,64.5,Russia,,,,,,,,,,,100,-107.5,-107.5,100,,100,Raw,D
1,Yuliya Makarova,Masters 45-49,47,F,67.5,65.6,Russia,,,,,,,,,,,130,140,-145,140,,140,Raw,D
1,Yelena Yakovleva,Open,25,F,75,74.9,Russia,,,,,,,,,,,120,-127.5,127.5,127.5,,127.5,Raw,D
1,Alina Khlebodarova,Open,27,F,82.5,80,Russia,,,,,,,,,,,95,102.5,107.5,107.5,,107.5,Raw,D
1,Danila Chizhov,Teen 13-15,14,M,56,54.2,Russia,,,,,,,,,,,90,100,107.5,107.5,,107.5,Raw,D
1,Andrey Kupryushin,Teen 18-19,19,M,56,53.5,Russia,,,,,,,,,,,130,140,145,145,,145,Raw,D
1,Eidi Sabzi,Open,26,M,60,60,Iran,,,,,,,,,,,130,150,-160,150,,150,Raw,D
1,Aleksandr Stepurin,Juniors 20-23,23,M,67.5,62.3,Russia,,,,,,,,,,,150,160,170,170,,170,Raw,D
2,Nikolay Zolotarev,Juniors 20-23,21,M,67.5,64.5,Russia,,,,,,,,,,,155,162.5,170,170,,170,Raw,D
1,Ivan Dyachenko,Open,30,M,67.5,65.4,Russia,,,,,,,,,,,242.5,252.5,-262.5,252.5,,252.5,Raw,D
2,Maksim Sukhobok,Open,51,M,67.5,65.2,Russia,,,,,,,,,,,212.5,225,235,235,-240,235,Raw,D
3,Suren Mkrtumyan,Open,27,M,67.5,67.5,Russia,,,,,,,,,,,185,197.5,202.5,202.5,,202.5,Raw,D
1,Maksim Sukhobok,Masters 50-54,51,M,67.5,65.2,Russia,,,,,,,,,,,212.5,225,235,235,-240,235,Raw,D
1,Nikolay Obukhov,Masters 60-64,63,M,67.5,67.4,Russia,,,,,,,,,,,160,170,180,180,,180,Raw,D
1,Rodion Tarasov,Teen 16-17,17,M,75,71.5,Russia,,,,,,,,,,,207.5,215,220.5,220.5,,220.5,Raw,D
2,Nikita Mizonov,Teen 16-17,17,M,75,73,Russia,,,,,,,,,,,150,160,-170,160,,160,Raw,D
1,Vasileios Kotsis,Juniors 20-23,23,M,75,71.2,Greece,,,,,,,,,,,145,-155,-155,145,,145,Raw,D
1,Mikhail Chetvergov,Open,32,M,75,72.7,Russia,,,,,,,,,,,220,227.5,232.5,232.5,,232.5,Raw,D
2,Sergey Chetvergov,Open,29,M,75,74,Russia,,,,,,,,,,,220,225,-230,225,,225,Raw,D
3,Rodion Tarasov,Open,17,M,75,71.5,Russia,,,,,,,,,,,207.5,215,220.5,220.5,,220.5,Raw,D
4,Vadim Shchemenenko,Open,27,M,75,73.2,Russia,,,,,,,,,,,180,195,200,200,,200,Raw,D
5,Mikhail Kostikov,Open,41,M,75,74.8,Russia,,,,,,,,,,,175,182.5,187.5,187.5,,187.5,Raw,D
1,Nikolaos Koukoulakis,Masters 45-49,47,M,75,72.9,Greece,,,,,,,,,,,145,-152.5,-152.5,145,,145,Raw,D
1,Sejfo Šehović,Masters 55-59,57,M,75,72.7,Bosnia and Herzegovina,,,,,,,,,,,200,220,230,230,,230,Raw,D
1,Andrey Kozhedub,Juniors 20-23,22,M,82.5,82.3,Russia,,,,,,,,,,,215,-230,-240,215,,215,Raw,D
1,Dmitriy Maleyev,Open,26,M,82.5,81.8,Russia,,,,,,,,,,,230,240,250,250,,250,Raw,D
2,Andrey Ganichkin,Open,32,M,82.5,79.9,Russia,,,,,,,,,,,205,220,227.5,227.5,,227.5,Raw,D
3,Kirill Lednev,Open,29,M,82.5,81.4,Russia,,,,,,,,,,,-205,205,220,220,,220,Raw,D
4,Sergey Doronin,Open,33,M,82.5,75.1,Russia,,,,,,,,,,,160,175,190,190,,190,Raw,D
5,Vyacheslav Bovinov,Open,36,M,82.5,81.5,Russia,,,,,,,,,,,185,-195,-195,185,,185,Raw,D
6,Yevgeniy Kononov,Open,30,M,82.5,79.7,Russia,,,,,,,,,,,180,-190,-190,180,,180,Raw,D
1,Yevgeniy Pervyshin,Masters 40-44,43,M,82.5,82.4,Russia,,,,,,,,,,,220,230,242.5,242.5,,242.5,Raw,D
1,Aleksandr Likholay,Masters 75-79,77,M,82.5,77.9,Russia,,,,,,,,,,,105,112.5,117.5,117.5,,117.5,Raw,D
1,Anton Shuvayev,Teen 18-19,19,M,90,89.1,Russia,,,,,,,,,,,220,232.5,242.5,242.5,-245,242.5,Raw,D
1,Denis Goncharov,Juniors 20-23,20,M,90,89.8,Russia,,,,,,,,,,,-230,240,250,250,-252.5,250,Raw,D
2,Yegor Petrov,Juniors 20-23,20,M,90,88.2,Russia,,,,,,,,,,,240,-250,-250,240,,240,Raw,D
1,Maksim Matveyev,Open,35,M,90,86.7,Russia,,,,,,,,,,,270,290,-300,290,,290,Raw,D
2,Aleksey Sheykin,Open,28,M,90,89.5,Belarus,,,,,,,,,,,250,265,275,275,,275,Raw,D
3,Vitaliy Zheludev,Open,31,M,90,87.7,Russia,,,,,,,,,,,270,-275,-275,270,,270,Raw,D
4,Yuriy Gubanov,Open,29,M,90,88.4,Russia,,,,,,,,,,,232.5,-252.5,252.5,252.5,,252.5,Raw,D
5,Sergey Zotov,Open,33,M,90,87.9,Russia,,,,,,,,,,,215,-230,230,230,,230,Raw,D
6,Aleksandr Alyautdinov,Open,32,M,90,86,Russia,,,,,,,,,,,170,177.5,180,180,,180,Raw,D
DQ,Zerpa Luis,Masters 50-54,50,M,90,87,Peru,,,,,,,,,,,-160,-160,,,,,Raw,D
1,Aleksandr Nemchinov,Masters 65-69,65,M,90,88.5,Russia,,,,,,,,,,,217.5,230,240,240,,240,Raw,D
1,Dimitrios Rallis,Open,28,M,100,99.2,Greece,,,,,,,,,,,305,-315,315,315,,315,Raw,D
2,Anton Kuzmin,Open,38,M,100,98.8,Russia,,,,,,,,,,,250,265,-275,265,,265,Raw,D
3,Andrey Vostokov,Open,36,M,100,97.4,Russia,,,,,,,,,,,230,250,260,260,,260,Raw,D
4,Mikko Maentymaeki,Open,45,M,100,99.4,Finland,,,,,,,,,,,-240,240,250,250,255,250,Raw,D
5,Aleksey Karev,Open,37,M,100,94.1,Russia,,,,,,,,,,,-240,-240,240,240,,240,Raw,D
1,Reza Zamani,Sub Masters 33-39,39,M,100,98.6,Iran,,,,,,,,,,,230,240,-250,240,,240,Raw,D
1,Pavel Bychkov,Masters 40-44,41,M,100,95.9,Russia,,,,,,,,,,,220,240,250,250,,250,Raw,D
1,Konstantinos Alexopoulos,Masters 45-49,48,M,100,98.1,Greece,,,,,,,,,,,240,250,260,260,,260,Raw,D
2,Mikko Maentymaeki,Masters 45-49,45,M,100,99.4,Finland,,,,,,,,,,,-240,240,250,250,255,250,Raw,D
1,Denis Plenkin,Masters 40-44,42,M,110,101.5,Russia,,,,,,,,,,,220,240,250,250,,250,Raw,D
1,Sergey Lukyanov,Masters 60-64,61,M,110,107.2,Russia,,,,,,,,,,,140,150,160,160,,160,Raw,D
1,Igor Zaychuk,Open,27,M,125,110.9,Ukraine,,,,,,,,,,,290,300,-305,300,,300,Raw,D
2,Tabriz Nurutdinov,Open,35,M,125,116.7,Russia,,,,,,,,,,,250,260,-270,260,,260,Raw,D
1,Andrey Shishkin,Masters 50-54,54,M,125,111,Russia,,,,,,,,,,,205,245,265,265,,265,Raw,D
1,Emmanouil Marizas,Open,26,M,140+,142.8,Greece,,,,,,,,,,,255,272.5,-275,272.5,,272.5,Raw,D
